Справочник эпидемиолога R - 8 Вычистка данных и ключевые функции
…
8.12 Построчные расчеты

Если вы хотите провести расчеты внутри строки, вы можете использовать функцию rowwise() из dplyr. См. эту онлайн виньетку по построчным расчетам.

Например, этот код применяет rowwise() и затем создает новый столбец, который складывает количество указанных столбцов симптомов, которые имеют значение “yes” (да), для каждой строки в построчном списке. Столбцы указываются внутри функции sum() по имени внутри вектора c(). rowwise(), по сути, является особым типом group_by(), так что лучше использовать ungroup(), когда вы закончите (см. страницу Группирование данных).

linelist %>%
  rowwise() %>%
  mutate(num_symptoms = sum(c(fever, chills, cough, aches, vomit) == "yes")) %>% 
  ungroup() %>% 
  select(fever, chills, cough, aches, vomit, num_symptoms) # for display

# A tibble: 5,888 × 6
   fever chills cough aches vomit num_symptoms
   <chr> <chr>  <chr> <chr> <chr>        <int>
 1 no    no     yes   no    yes              2
 2 <NA>  <NA>   <NA>  <NA>  <NA>            NA
 3 <NA>  <NA>   <NA>  <NA>  <NA>            NA
 4 no    no     no    no    no               0
 5 no    no     yes   no    yes              2
 6 no    no     yes   no    yes              2
 7 <NA>  <NA>   <NA>  <NA>  <NA>            NA
 8 no    no     yes   no    yes              2
 9 no    no     yes   no    yes              2
10 no    no     yes   no    no               1
# ℹ 5,878 more rows
…
Поместите критерии, уточняющие столбец, внутрь функции c_across() из dplyr. Это необходимо сделать, поскольку c_across (документация) разработан для работы конкретно с rowwise(). Например, следующий код:

Применяет rowwise(), так что следующая операция (sum()) применяется к каждой строке (не сумма по всем столбцам)

Создает новый столбец num_NA_dates, определенный для каждой строки как число столбцов (с именем, содержащим “date”), для которого is.na() оценивается как TRUE (истина) (в них отсутствуют данные).

ungroup() для удаления эффектов от применения rowwise() для последующих шагов

linelist %>%
  rowwise() %>%
  mutate(num_NA_dates = sum(is.na(c_across(contains("date"))))) %>% 
  ungroup() %>% 
  select(num_NA_dates, contains("date")) # для отображения

# A tibble: 5,888 × 5
   num_NA_dates date_infection date_onset date_hospitalisation date_outcome
          <int> <date>         <date>     <date>               <date>      
 1            1 2014-05-08     2014-05-13 2014-05-15           NA          
 2            1 NA             2014-05-13 2014-05-14           2014-05-18  
 3            1 NA             2014-05-16 2014-05-18           2014-05-30  
 4            1 2014-05-04     2014-05-18 2014-05-20           NA          
 5            0 2014-05-18     2014-05-21 2014-05-22           2014-05-29  
 6            0 2014-05-03     2014-05-22 2014-05-23           2014-05-24  
 7            0 2014-05-22     2014-05-27 2014-05-29           2014-06-01  
 8            0 2014-05-28     2014-06-02 2014-06-03           2014-06-07  
 9            1 NA             2014-06-05 2014-06-06           2014-06-18  
10            1 NA             2014-06-05 2014-06-07           2014-06-09  
# ℹ 5,878 more rows

Вы также можете задать другие функции, такие как max(), чтобы получить последнюю или наиболее недавнюю дату для каждой строки:

linelist %>%
  rowwise() %>%
  mutate(latest_date = max(c_across(contains("date")), na.rm=T)) %>% 
  ungroup() %>% 
  select(latest_date, contains("date"))  # для отображения

# A tibble: 5,888 × 5
   latest_date date_infection date_onset date_hospitalisation date_outcome
   <date>      <date>         <date>     <date>               <date>      
 1 2014-05-15  2014-05-08     2014-05-13 2014-05-15           NA          
 2 2014-05-18  NA             2014-05-13 2014-05-14           2014-05-18  
 3 2014-05-30  NA             2014-05-16 2014-05-18           2014-05-30  
 4 2014-05-20  2014-05-04     2014-05-18 2014-05-20           NA          
 5 2014-05-29  2014-05-18     2014-05-21 2014-05-22           2014-05-29  
 6 2014-05-24  2014-05-03     2014-05-22 2014-05-23           2014-05-24  
 7 2014-06-01  2014-05-22     2014-05-27 2014-05-29           2014-06-01  
 8 2014-06-07  2014-05-28     2014-06-02 2014-06-03           2014-06-07  
 9 2014-06-18  NA             2014-06-05 2014-06-06           2014-06-18  
10 2014-06-09  NA             2014-06-05 2014-06-07           2014-06-09  
# ℹ 5,878 more rows
…
