Справочник эпидемиолога R - 13 Группирование данных
…
Функция group_by() из пакета dplyr группирует строки по уникальным значениям в указанном для функции столбце. Если указаны несколько столбцов, строки группируются по уникальным комбинациям значений по всем столбцам. Каждое уникальное значение (или комбинация значений) составляет группу. Дальнейшие изменения в наборе данных или расчетах затем можно проводить в контексте каждой группы.

Например, команда ниже берет linelist и группирует строки по уникальным значениям в столбце outcome, сохраняя выходные данные как новый датафрейм ll_by_outcome. Столбец(цы), по которым идет группирование, размещаются внутри скобок функции group_by().

ll_by_outcome <- linelist %>% 
  group_by(outcome)

Обратите внимание, что в наборе данных нет видимых изменений после выполнения group_by(), пока не будет применена другая глагольная функция dplyr, такая как mutate(), summarise(), либо arrange() к “группированному” датафрейму.

Однако вы можете “увидеть” группирование, напечатав датафрейм. Когда вы печатаете сгруппированный датафрейм, вы увидите, что он превратился в объект класса tibble который при печати отображает, какое группирование применено и сколько существует групп - это пишется над строкой заголовка.

# печать, чтобы увидеть, какие группы активны
ll_by_outcome

# A tibble: 5,888 × 30
# Groups:   outcome [3]
   case_id generation date_infection date_onset date_hospitalisation
   <chr>        <dbl> <date>         <date>     <date>              
 1 5fe599           4 2014-05-08     2014-05-13 2014-05-15          
 2 8689b7           4 NA             2014-05-13 2014-05-14          
 3 11f8ea           2 NA             2014-05-16 2014-05-18          
 4 b8812a           3 2014-05-04     2014-05-18 2014-05-20          
 5 893f25           3 2014-05-18     2014-05-21 2014-05-22          
 6 be99c8           3 2014-05-03     2014-05-22 2014-05-23          
 7 07e3e8           4 2014-05-22     2014-05-27 2014-05-29          
 8 369449           4 2014-05-28     2014-06-02 2014-06-03          
 9 f393b4           4 NA             2014-06-05 2014-06-06          
10 1389ca           4 NA             2014-06-05 2014-06-07          
# ℹ 5,878 more rows
# ℹ 25 more variables: date_outcome <date>, outcome <chr>, gender <chr>,
#   age <dbl>, age_unit <chr>, age_years <dbl>, age_cat <fct>, age_cat5 <fct>,
#   hospital <chr>, lon <dbl>, lat <dbl>, infector <chr>, source <chr>,
#   wt_kg <dbl>, ht_cm <dbl>, ct_blood <dbl>, fever <chr>, chills <chr>,
#   cough <chr>, aches <chr>, vomit <chr>, temp <dbl>, time_admission <chr>,
#   bmi <dbl>, days_onset_hosp <dbl>
…
Добавить подсчеты

Вместо count() и summarise() вы можете использовать add_count(), чтобы добавить новый столбец n с подсчетом строк на группу, при этом сохранив все остальные столбцы датафрейма.

Это означает, что подсчитанное количество по группе в новом столбце n будет напечатано в каждой строке группы. Для демонстрации мы добавим этот столбец, а затем переупорядочим столбцы для облегчения просмотра. См. раздел ниже фильтр по размеру группы, где приведен еще один пример.

linelist %>% 
  as_tibble() %>%                   # конвертируем в таблицу tibble для более красивой печати 
  add_count(hospital) %>%           # добавляем столбец n с подсчетами по больнице
  select(hospital, n, everything()) # переупорядочиваем для демонстрации

# A tibble: 5,888 × 31
   hospital                       n case_id generation date_infection date_onset
   <chr>                      <int> <chr>        <dbl> <date>         <date>    
 1 Other                        885 5fe599           4 2014-05-08     2014-05-13
 2 Missing                     1469 8689b7           4 NA             2014-05-13
 3 St. Mark's Maternity Hosp…   422 11f8ea           2 NA             2014-05-16
 4 Port Hospital               1762 b8812a           3 2014-05-04     2014-05-18
 5 Military Hospital            896 893f25           3 2014-05-18     2014-05-21
 6 Port Hospital               1762 be99c8           3 2014-05-03     2014-05-22
 7 Missing                     1469 07e3e8           4 2014-05-22     2014-05-27
 8 Missing                     1469 369449           4 2014-05-28     2014-06-02
 9 Missing                     1469 f393b4           4 NA             2014-06-05
10 Missing                     1469 1389ca           4 NA             2014-06-05
# ℹ 5,878 more rows
# ℹ 25 more variables: date_hospitalisation <date>, date_outcome <date>,
#   outcome <chr>, gender <chr>, age <dbl>, age_unit <chr>, age_years <dbl>,
#   age_cat <fct>, age_cat5 <fct>, lon <dbl>, lat <dbl>, infector <chr>,
#   source <chr>, wt_kg <dbl>, ht_cm <dbl>, ct_blood <dbl>, fever <chr>,
#   chills <chr>, cough <chr>, aches <chr>, vomit <chr>, temp <dbl>,
#   time_admission <chr>, bmi <dbl>, days_onset_hosp <dbl>
…
Сгруппируйте построчный список по столбцу hospital

Упорядочьте записи от самой последней к самой ранней дате госпитализации date_hospitalisation внутри каждой группы больниц

Используйте slice, чтобы извлечь первые 5 строк для каждой больницы

linelist %>%
  group_by(hospital) %>%
  arrange(hospital, date_hospitalisation) %>%
  slice_head(n = 5) %>% 
  arrange(hospital) %>%                            # для отображения
  select(case_id, hospital, date_hospitalisation)  # для отображения

# A tibble: 30 × 3
# Groups:   hospital [6]
   case_id hospital          date_hospitalisation
   <chr>   <chr>             <date>              
 1 20b688  Central Hospital  2014-05-06          
 2 d58402  Central Hospital  2014-05-10          
 3 b8f2fd  Central Hospital  2014-05-13          
 4 acf422  Central Hospital  2014-05-28          
 5 275cc7  Central Hospital  2014-05-28          
 6 d1fafd  Military Hospital 2014-04-17          
 7 974bc1  Military Hospital 2014-05-13          
 8 6a9004  Military Hospital 2014-05-13          
 9 09e386  Military Hospital 2014-05-14          
10 865581  Military Hospital 2014-05-15          
# ℹ 20 more rows
…
См. страницу [Дедупликация], где представлено больше примеров и деталей по slice().

Фильтр по размеру группы

Фукнция add_count() добавляет столбец n к оригинальным данным, указывая количество строк в этой группе строк.

Ниже показано, как add_count() применяется к столбцу hospital, так что значения в новом столбце n отражают количество строк в группе больниц этой строки. Обратите внимание, что значения в столбце n повторяются. В примере ниже, столбец n можно изменить, используя name = внутри add_count(). Для демонстрационных целей мы переупорядочиваем столбцы с помощью select().

linelist %>% 
  as_tibble() %>% 
  add_count(hospital) %>%          # добавляем "количество строк госпитализированных в ту же больницу, что и эта строка" 
  select(hospital, n, everything())

# A tibble: 5,888 × 31
   hospital                       n case_id generation date_infection date_onset
   <chr>                      <int> <chr>        <dbl> <date>         <date>    
 1 Other                        885 5fe599           4 2014-05-08     2014-05-13
 2 Missing                     1469 8689b7           4 NA             2014-05-13
 3 St. Mark's Maternity Hosp…   422 11f8ea           2 NA             2014-05-16
 4 Port Hospital               1762 b8812a           3 2014-05-04     2014-05-18
 5 Military Hospital            896 893f25           3 2014-05-18     2014-05-21
 6 Port Hospital               1762 be99c8           3 2014-05-03     2014-05-22
 7 Missing                     1469 07e3e8           4 2014-05-22     2014-05-27
 8 Missing                     1469 369449           4 2014-05-28     2014-06-02
 9 Missing                     1469 f393b4           4 NA             2014-06-05
10 Missing                     1469 1389ca           4 NA             2014-06-05
# ℹ 5,878 more rows
# ℹ 25 more variables: date_hospitalisation <date>, date_outcome <date>,
#   outcome <chr>, gender <chr>, age <dbl>, age_unit <chr>, age_years <dbl>,
#   age_cat <fct>, age_cat5 <fct>, lon <dbl>, lat <dbl>, infector <chr>,
#   source <chr>, wt_kg <dbl>, ht_cm <dbl>, ct_blood <dbl>, fever <chr>,
#   chills <chr>, cough <chr>, aches <chr>, vomit <chr>, temp <dbl>,
#   time_admission <chr>, bmi <dbl>, days_onset_hosp <dbl>
…
  # новые столбцы
  mutate(
    # среднее количество дней до госпитализации по больнице (округляется до 1 десятичного знака)
    group_delay_admit = round(mean(days_onset_hosp, na.rm=T), 1),
    
    # разница между задержкой строки и средней задержкой в этой больнице (округляется до 1 десятичного знака)
    diff_to_group     = round(days_onset_hosp - group_delay_admit, 1)) %>%
  
  # выбираем только определенные строки для демонстрации/просмотра
  select(case_id, hospital, days_onset_hosp, group_delay_admit, diff_to_group)

# A tibble: 5,888 × 5
# Groups:   hospital [6]
   case_id hospital              days_onset_hosp group_delay_admit diff_to_group
   <chr>   <chr>                           <dbl>             <dbl>         <dbl>
 1 5fe599  Other                               2               2             0  
 2 8689b7  Missing                             1               2.1          -1.1
 3 11f8ea  St. Mark's Maternity…               2               2.1          -0.1
 4 b8812a  Port Hospital                       2               2.1          -0.1
 5 893f25  Military Hospital                   1               2.1          -1.1
 6 be99c8  Port Hospital                       1               2.1          -1.1
 7 07e3e8  Missing                             2               2.1          -0.1
 8 369449  Missing                             1               2.1          -1.1
 9 f393b4  Missing                             1               2.1          -1.1
10 1389ca  Missing                             2               2.1          -0.1
# ℹ 5,878 more rows
…
