43 Информационные панели с Shiny – Справочник эпидемиолога R
…
разработать функцию для визуализации данных в зависимости от ввода пользователя

Этот перечень достаточно простой и не должен вызывать сложностей при реализации. Теперь важно подумать, какие части процесса должны быть выполнены только один раз, а какие части нужно выполнять в ответ за пользовательский ввод. Это происходит потому, что приложения shiny, как правило, выполняют некоторый код до запуска, что делается только один раз. Для быстроты работы нашего приложения будет полезно перенести как можно больше кода в этот раздел. Например, нам нужно загрузить данные/пакеты и выполнить основные преобразования только один раз, Поэтому мы можем разместить этот код за пределами сервера. Это означает, что единственное, что будет делать сервер - выполнять код для визуализации данных. Давайте разработаем все эти компоненты сначала в скрипте. Однако поскольку мы визуализируем данные с помощью функции, мы также можем разместить код для функции за пределами сервера, чтобы наша функция была в среде, когда приложение запускается!

Сначала загрузим наши данные. Поскольку мы работаем с новым проектом и хотим сделать его чистым, мы можем создать новую директорию под названием data и добавить туда наши данные о малярии. Мы можем запустить приведенный ниже код в тестовом скрипте, который впоследствии удалим, когда очистим структуру нашего приложения.

pacman::p_load("tidyverse", "lubridate")

# прочитываем данные
malaria_data <- rio::import(here::here("data", "malaria_facility_count_data.rds")) %>% 
  as_tibble()

print(malaria_data)

# A tibble: 3,038 × 10
   location_name data_date  submitted_date Province District `malaria_rdt_0-4`
   <chr>         <date>     <date>         <chr>    <chr>                <int>
 1 Facility 1    2020-08-11 2020-08-12     North    Spring                  11
 2 Facility 2    2020-08-11 2020-08-12     North    Bolo                    11
 3 Facility 3    2020-08-11 2020-08-12     North    Dingo                    8
 4 Facility 4    2020-08-11 2020-08-12     North    Bolo                    16
 5 Facility 5    2020-08-11 2020-08-12     North    Bolo                     9
 6 Facility 6    2020-08-11 2020-08-12     North    Dingo                    3
 7 Facility 6    2020-08-10 2020-08-12     North    Dingo                    4
 8 Facility 5    2020-08-10 2020-08-12     North    Bolo                    15
 9 Facility 5    2020-08-09 2020-08-12     North    Bolo                    11
10 Facility 5    2020-08-08 2020-08-12     North    Bolo                    19
# ℹ 3,028 more rows
# ℹ 4 more variables: `malaria_rdt_5-14` <int>, malaria_rdt_15 <int>,
#   malaria_tot <int>, newid <int>

Работать с этими данными будет проще, если мы будем использовать аккуратные стандарты данных, поэтому нам также следует преобразовать их в более длинный формат, где возрастная группа - это столбец, а случаи - другой столбец. Мы это легко можем сделать с помощью принципов, которые были рассмотрены на странице [Поворот данных].

malaria_data <- malaria_data %>%
  select(-newid) %>%
  pivot_longer(cols = starts_with("malaria_"), names_to = "age_group", values_to = "cases_reported")

print(malaria_data)

# A tibble: 12,152 × 7
   location_name data_date  submitted_date Province District age_group       
   <chr>         <date>     <date>         <chr>    <chr>    <chr>           
 1 Facility 1    2020-08-11 2020-08-12     North    Spring   malaria_rdt_0-4 
 2 Facility 1    2020-08-11 2020-08-12     North    Spring   malaria_rdt_5-14
 3 Facility 1    2020-08-11 2020-08-12     North    Spring   malaria_rdt_15  
 4 Facility 1    2020-08-11 2020-08-12     North    Spring   malaria_tot     
 5 Facility 2    2020-08-11 2020-08-12     North    Bolo     malaria_rdt_0-4 
 6 Facility 2    2020-08-11 2020-08-12     North    Bolo     malaria_rdt_5-14
 7 Facility 2    2020-08-11 2020-08-12     North    Bolo     malaria_rdt_15  
 8 Facility 2    2020-08-11 2020-08-12     North    Bolo     malaria_tot     
 9 Facility 3    2020-08-11 2020-08-12     North    Dingo    malaria_rdt_0-4 
10 Facility 3    2020-08-11 2020-08-12     North    Dingo    malaria_rdt_5-14
# ℹ 12,142 more rows
# ℹ 1 more variable: cases_reported <int>
…
# датафрейм имен местности по районам
facility_list <- malaria_data %>%
  group_by(location_name, District) %>%
  summarise() %>% 
  ungroup()

Давайте взглянем на них:

all_districts

[1] "All"     "Spring"  "Bolo"    "Dingo"   "Barnard"

facility_list

# A tibble: 65 × 2
   location_name District
   <chr>         <chr>   
 1 Facility 1    Spring  
 2 Facility 10   Bolo    
 3 Facility 11   Spring  
 4 Facility 12   Dingo   
 5 Facility 13   Bolo    
 6 Facility 14   Dingo   
 7 Facility 15   Barnard 
 8 Facility 16   Barnard 
 9 Facility 17   Barnard 
10 Facility 18   Bolo    
# ℹ 55 more rows
…
