pivoting.utf8
…
Pivotting single columns

First, lets begin by loading our packages and converting count_data to a tibble for easy printing:

pacman::p_load(tidyverse)

# Convert count_data to `tibble` for better printing
count_data <- 
  count_data %>% 
  as_tibble() 

count_data

## # A tibble: 3,038 x 10
##    location_name data_date  submitted_date Province District `malaria_rdt_0-4`
##    <chr>         <date>     <date>         <chr>    <chr>                <int>
##  1 Facility 1    2019-06-13 2019-06-14     North    Spring                  11
##  2 Facility 2    2019-06-13 2019-06-14     North    Bolo                    11
##  3 Facility 3    2019-06-13 2019-06-14     North    Dingo                    8
##  4 Facility 4    2019-06-13 2019-06-14     North    Bolo                    16
##  5 Facility 5    2019-06-13 2019-06-14     North    Bolo                     9
##  6 Facility 6    2019-06-13 2019-06-14     North    Dingo                    3
##  7 Facility 6    2019-06-12 2019-06-14     North    Dingo                    4
##  8 Facility 5    2019-06-12 2019-06-14     North    Bolo                    15
##  9 Facility 5    2019-06-11 2019-06-14     North    Bolo                    11
## 10 Facility 5    2019-06-10 2019-06-14     North    Bolo                    19
## #  with 3,028 more rows, and 4 more variables: malaria_rdt_5-14 <int>,
## #   malaria_rdt_15 <int>, malaria_tot <int>, newid <int>

Next, we want to use {tidyr}s pivot_longer() function to convert the wide dataset to a long format, converting the four columns with data on malaria counts to two new columns: one which captures the variable name and one which captures the values from the cells. Since these four variables all begin with the prefix malaria_, we can make use of the handy function starts_with().

df_long <- 
  count_data %>% 
  pivot_longer(
    cols = starts_with("malaria_")
  )

df_long

## # A tibble: 12,152 x 8
##    location_name data_date  submitted_date Province District newid name    value
##    <chr>         <date>     <date>         <chr>    <chr>    <int> <chr>   <int>
##  1 Facility 1    2019-06-13 2019-06-14     North    Spring       1 malari    11
##  2 Facility 1    2019-06-13 2019-06-14     North    Spring       1 malari    12
##  3 Facility 1    2019-06-13 2019-06-14     North    Spring       1 malari    23
##  4 Facility 1    2019-06-13 2019-06-14     North    Spring       1 malari    46
##  5 Facility 2    2019-06-13 2019-06-14     North    Bolo         2 malari    11
##  6 Facility 2    2019-06-13 2019-06-14     North    Bolo         2 malari    10
##  7 Facility 2    2019-06-13 2019-06-14     North    Bolo         2 malari     5
##  8 Facility 2    2019-06-13 2019-06-14     North    Bolo         2 malari    26
##  9 Facility 3    2019-06-13 2019-06-14     North    Dingo        3 malari     8
## 10 Facility 3    2019-06-13 2019-06-14     North    Dingo        3 malari     5
## #  with 12,142 more rows

However, we could also have specified the columns by position:

count_data %>% 
  pivot_longer(
    cols = 6:9
  )

## # A tibble: 12,152 x 8
##    location_name data_date  submitted_date Province District newid name    value
##    <chr>         <date>     <date>         <chr>    <chr>    <int> <chr>   <int>
##  1 Facility 1    2019-06-13 2019-06-14     North    Spring       1 malari    11
##  2 Facility 1    2019-06-13 2019-06-14     North    Spring       1 malari    12
##  3 Facility 1    2019-06-13 2019-06-14     North    Spring       1 malari    23
##  4 Facility 1    2019-06-13 2019-06-14     North    Spring       1 malari    46
##  5 Facility 2    2019-06-13 2019-06-14     North    Bolo         2 malari    11
##  6 Facility 2    2019-06-13 2019-06-14     North    Bolo         2 malari    10
##  7 Facility 2    2019-06-13 2019-06-14     North    Bolo         2 malari     5
##  8 Facility 2    2019-06-13 2019-06-14     North    Bolo         2 malari    26
##  9 Facility 3    2019-06-13 2019-06-14     North    Dingo        3 malari     8
## 10 Facility 3    2019-06-13 2019-06-14     North    Dingo        3 malari     5
## #  with 12,142 more rows

or by named range:

count_data %>% 
  pivot_longer(
    cols = `malaria_rdt_0-4`:malaria_tot
  )

## # A tibble: 12,152 x 8
##    location_name data_date  submitted_date Province District newid name    value
##    <chr>         <date>     <date>         <chr>    <chr>    <int> <chr>   <int>
##  1 Facility 1    2019-06-13 2019-06-14     North    Spring       1 malari    11
##  2 Facility 1    2019-06-13 2019-06-14     North    Spring       1 malari    12
##  3 Facility 1    2019-06-13 2019-06-14     North    Spring       1 malari    23
##  4 Facility 1    2019-06-13 2019-06-14     North    Spring       1 malari    46
##  5 Facility 2    2019-06-13 2019-06-14     North    Bolo         2 malari    11
##  6 Facility 2    2019-06-13 2019-06-14     North    Bolo         2 malari    10
##  7 Facility 2    2019-06-13 2019-06-14     North    Bolo         2 malari     5
##  8 Facility 2    2019-06-13 2019-06-14     North    Bolo         2 malari    26
##  9 Facility 3    2019-06-13 2019-06-14     North    Dingo        3 malari     8
## 10 Facility 3    2019-06-13 2019-06-14     North    Dingo        3 malari     5
## #  with 12,142 more rows
Notice that the newly created dataframe (df_long) has more rows (12,152 vs 3,038); it has become longer. In fact, it is precisely four times as long, because each row in the original dataset now represents four rows in df_long, one for each of the malaria count observations (<4y, 5-14y, 15y+, and total).

In addition to becoming longer, the new dataset has fewer columns (8 vs 10), as the data previously stored in four columns (those beginning with the prefix malaria_) is now stored in two. These two columns are given the default names of name and value, but we can override these defaults to provide more meaningful names, which can help remember what is stored within, using the names_to and values_to arguments. Lets use the names age_group and counts:

df_long <- 
  count_data %>% 
  pivot_longer(
    cols = starts_with("malaria_"),
    names_to = "age_group",
    values_to = "counts"
  )

df_long

## # A tibble: 12,152 x 8
##    location_name data_date  submitted_date Province District newid age_group    
##    <chr>         <date>     <date>         <chr>    <chr>    <int> <chr>        
##  1 Facility 1    2019-06-13 2019-06-14     North    Spring       1 malaria_rdt_
##  2 Facility 1    2019-06-13 2019-06-14     North    Spring       1 malaria_rdt_
##  3 Facility 1    2019-06-13 2019-06-14     North    Spring       1 malaria_rdt_
##  4 Facility 1    2019-06-13 2019-06-14     North    Spring       1 malaria_tot  
##  5 Facility 2    2019-06-13 2019-06-14     North    Bolo         2 malaria_rdt_
##  6 Facility 2    2019-06-13 2019-06-14     North    Bolo         2 malaria_rdt_
##  7 Facility 2    2019-06-13 2019-06-14     North    Bolo         2 malaria_rdt_
##  8 Facility 2    2019-06-13 2019-06-14     North    Bolo         2 malaria_tot  
##  9 Facility 3    2019-06-13 2019-06-14     North    Dingo        3 malaria_rdt_
## 10 Facility 3    2019-06-13 2019-06-14     North    Dingo        3 malaria_rdt_
## #  with 12,142 more rows, and 1 more variable: counts <int>
…
Data

Let us use the linelist dataset. Suppose that we want to know the counts of individuals in the different age groups, by sex:

linelist <- 
  linelist %>% 
  as_tibble()

df_wide <- 
  linelist %>% 
  count(age_cat, gender)

df_wide

## # A tibble: 24 x 3
##    age_cat gender     n
##    <fct>   <chr>  <int>
##  1 0-4     f        640
##  2 0-4     m        416
##  3 0-4     <NA>      39
##  4 5-9     f        641
##  5 5-9     m        412
##  6 5-9     <NA>      42
##  7 10-14   f        518
##  8 10-14   m        383
##  9 10-14   <NA>      40
## 10 15-19   f        359
## #  with 14 more rows
…
