8 Cleaning data and core functions – The Epidemiologist R Handbook
…
          # also filter to keep only the second outbreak
          date_onset > as.Date("2013-06-01") | (is.na(date_onset) & !hospital %in% c("Hospital A", "Hospital B")))

8.12 Row-wise calculations

If you want to perform a calculation within a row, you can use rowwise() from dplyr. See this online vignette on row-wise calculations. For example, this code applies rowwise() and then creates a new column that sums the number of the specified symptom columns that have value “yes”, for each row in the linelist. The columns are specified within sum() by name within a vector c(). rowwise() is essentially a special kind of group_by(), so it is best to use ungroup() when you are done (page on Grouping data).

linelist %>%
  rowwise() %>%
  mutate(num_symptoms = sum(c(fever, chills, cough, aches, vomit) == "yes")) %>% 
  ungroup() %>% 
  select(fever, chills, cough, aches, vomit, num_symptoms) # for display

# A tibble: 5,888 × 6
   fever chills cough aches vomit num_symptoms
   <chr> <chr>  <chr> <chr> <chr>        <int>
 1 no    no     yes   no    yes              2
 2 <NA>  <NA>   <NA>  <NA>  <NA>            NA
 3 <NA>  <NA>   <NA>  <NA>  <NA>            NA
 4 no    no     no    no    no               0
 5 no    no     yes   no    yes              2
 6 no    no     yes   no    yes              2
 7 <NA>  <NA>   <NA>  <NA>  <NA>            NA
 8 no    no     yes   no    yes              2
 9 no    no     yes   no    yes              2
10 no    no     yes   no    no               1
# ℹ 5,878 more rows
…
Put the column-specification criteria within the dplyr function c_across(). This is because c_across (documentation) is designed to work with rowwise() specifically. For example, the following code:

Applies rowwise() so the following operation (sum()) is applied within each row (not summing entire columns)

Creates new column num_NA_dates, defined for each row as the number of columns (with name containing “date”) for which is.na() evaluated to TRUE (they are missing data).

ungroup() to remove the effects of rowwise() for subsequent steps

linelist %>%
  rowwise() %>%
  mutate(num_NA_dates = sum(is.na(c_across(contains("date"))))) %>% 
  ungroup() %>% 
  select(num_NA_dates, contains("date")) # for display

# A tibble: 5,888 × 5
   num_NA_dates date_infection date_onset date_hospitalisation date_outcome
          <int> <date>         <date>     <date>               <date>      
 1            1 2014-05-08     2014-05-13 2014-05-15           NA          
 2            1 NA             2014-05-13 2014-05-14           2014-05-18  
 3            1 NA             2014-05-16 2014-05-18           2014-05-30  
 4            1 2014-05-04     2014-05-18 2014-05-20           NA          
 5            0 2014-05-18     2014-05-21 2014-05-22           2014-05-29  
 6            0 2014-05-03     2014-05-22 2014-05-23           2014-05-24  
 7            0 2014-05-22     2014-05-27 2014-05-29           2014-06-01  
 8            0 2014-05-28     2014-06-02 2014-06-03           2014-06-07  
 9            1 NA             2014-06-05 2014-06-06           2014-06-18  
10            1 NA             2014-06-05 2014-06-07           2014-06-09  
# ℹ 5,878 more rows

You could also provide other functions, such as max() to get the latest or most recent date for each row:

linelist %>%
  rowwise() %>%
  mutate(latest_date = max(c_across(contains("date")), na.rm=T)) %>% 
  ungroup() %>% 
  select(latest_date, contains("date"))  # for display

# A tibble: 5,888 × 5
   latest_date date_infection date_onset date_hospitalisation date_outcome
   <date>      <date>         <date>     <date>               <date>      
 1 2014-05-15  2014-05-08     2014-05-13 2014-05-15           NA          
 2 2014-05-18  NA             2014-05-13 2014-05-14           2014-05-18  
 3 2014-05-30  NA             2014-05-16 2014-05-18           2014-05-30  
 4 2014-05-20  2014-05-04     2014-05-18 2014-05-20           NA          
 5 2014-05-29  2014-05-18     2014-05-21 2014-05-22           2014-05-29  
 6 2014-05-24  2014-05-03     2014-05-22 2014-05-23           2014-05-24  
 7 2014-06-01  2014-05-22     2014-05-27 2014-05-29           2014-06-01  
 8 2014-06-07  2014-05-28     2014-06-02 2014-06-03           2014-06-07  
 9 2014-06-18  NA             2014-06-05 2014-06-06           2014-06-18  
10 2014-06-09  NA             2014-06-05 2014-06-07           2014-06-09  
# ℹ 5,878 more rows
…
