The Epidemiologist R Handbook - 25 Contact tracing
…
With the Go.Data data structure, the relationships dataset contains the ages of both cases and contacts, so you could use that dataset and create an age pyramid showing the differences between these two groups of people. The relationships data frame will be mutated to transform the numberic age columns into categories (see the Cleaning data and core functions page). We also pivot the dataframe longer to facilitate easy plotting with ggplot2 (see Pivoting data).

relation_age <- relationships %>% 
  select(source_age, target_age) %>% 
  transmute(                              # transmute is like mutate() but removes all other columns not mentioned
    source_age_class = epikit::age_categories(source_age, breakers = seq(0, 80, 5)),
    target_age_class = epikit::age_categories(target_age, breakers = seq(0, 80, 5)),
    ) %>% 
  pivot_longer(cols = contains("class"), names_to = "category", values_to = "age_class")  # pivot longer

relation_age

# A tibble: 200 × 2
   category         age_class
   <chr>            <fct>    
 1 source_age_class 80+      
 2 target_age_class 15-19    
 3 source_age_class <NA>     
 4 target_age_class 50-54    
 5 source_age_class <NA>     
 6 target_age_class 20-24    
 7 source_age_class 30-34    
 8 target_age_class 45-49    
 9 source_age_class 40-44    
10 target_age_class 30-34    
# ℹ 190 more rows
…
