The Epidemiologist R Handbook - 12 Pivoting data
…
df_long

Notice that the newly created data frame (df_long) has more rows (12,152 vs 3,038); it has become longer. In fact, it is precisely four times as long, because each row in the original dataset now represents four rows in df_long, one for each of the malaria count observations (<4y, 5-14y, 15y+, and total).

In addition to becoming longer, the new dataset has fewer columns (8 vs 10), as the data previously stored in four columns (those beginning with the prefix malaria_) is now stored in two.

Since the names of these four columns all begin with the prefix malaria_, we could have made use of the handy “tidyselect” function starts_with() to achieve the same result (see the page Cleaning data and core functions for more of these helper functions).

# provide column with a tidyselect helper function
count_data %>% 
  pivot_longer(
    cols = starts_with("malaria_")
  )

# A tibble: 12,152 × 8
   location_name data_date  submitted_date Province District newid name    value
   <chr>         <date>     <date>         <chr>    <chr>    <int> <chr>   <int>
 1 Facility 1    2020-08-11 2020-08-12     North    Spring       1 malari…    11
 2 Facility 1    2020-08-11 2020-08-12     North    Spring       1 malari…    12
 3 Facility 1    2020-08-11 2020-08-12     North    Spring       1 malari…    23
 4 Facility 1    2020-08-11 2020-08-12     North    Spring       1 malari…    46
 5 Facility 2    2020-08-11 2020-08-12     North    Bolo         2 malari…    11
 6 Facility 2    2020-08-11 2020-08-12     North    Bolo         2 malari…    10
 7 Facility 2    2020-08-11 2020-08-12     North    Bolo         2 malari…     5
 8 Facility 2    2020-08-11 2020-08-12     North    Bolo         2 malari…    26
 9 Facility 3    2020-08-11 2020-08-12     North    Dingo        3 malari…     8
10 Facility 3    2020-08-11 2020-08-12     North    Dingo        3 malari…     5
# ℹ 12,142 more rows
…
These two new columns are given the default names of name and value, but we can override these defaults to provide more meaningful names, which can help remember what is stored within, using the names_to and values_to arguments. Let’s use the names age_group and counts:

df_long <- 
  count_data %>% 
  pivot_longer(
    cols = starts_with("malaria_"),
    names_to = "age_group",
    values_to = "counts"
  )

df_long

# A tibble: 12,152 × 8
   location_name data_date  submitted_date Province District newid age_group    
   <chr>         <date>     <date>         <chr>    <chr>    <int> <chr>        
 1 Facility 1    2020-08-11 2020-08-12     North    Spring       1 malaria_rdt_…
 2 Facility 1    2020-08-11 2020-08-12     North    Spring       1 malaria_rdt_…
 3 Facility 1    2020-08-11 2020-08-12     North    Spring       1 malaria_rdt_…
 4 Facility 1    2020-08-11 2020-08-12     North    Spring       1 malaria_tot  
 5 Facility 2    2020-08-11 2020-08-12     North    Bolo         2 malaria_rdt_…
 6 Facility 2    2020-08-11 2020-08-12     North    Bolo         2 malaria_rdt_…
 7 Facility 2    2020-08-11 2020-08-12     North    Bolo         2 malaria_rdt_…
 8 Facility 2    2020-08-11 2020-08-12     North    Bolo         2 malaria_tot  
 9 Facility 3    2020-08-11 2020-08-12     North    Dingo        3 malaria_rdt_…
10 Facility 3    2020-08-11 2020-08-12     North    Dingo        3 malaria_rdt_…
# ℹ 12,142 more rows
# ℹ 1 more variable: counts <int>
…
Alternatively, we could have excluded this variable when we ran pivot_longer(), thereby maintaining it in the dataset as a separate variable. See how its values “expand” to fill the new rows.

count_data %>% 
  pivot_longer(
    cols = `malaria_rdt_0-4`:malaria_rdt_15,   # does not include the totals column
    names_to = "age_group",
    values_to = "counts"
  )

# A tibble: 9,114 × 9
   location_name data_date  submitted_date Province District malaria_tot newid
   <chr>         <date>     <date>         <chr>    <chr>          <int> <int>
 1 Facility 1    2020-08-11 2020-08-12     North    Spring            46     1
 2 Facility 1    2020-08-11 2020-08-12     North    Spring            46     1
 3 Facility 1    2020-08-11 2020-08-12     North    Spring            46     1
 4 Facility 2    2020-08-11 2020-08-12     North    Bolo              26     2
 5 Facility 2    2020-08-11 2020-08-12     North    Bolo              26     2
 6 Facility 2    2020-08-11 2020-08-12     North    Bolo              26     2
 7 Facility 3    2020-08-11 2020-08-12     North    Dingo             18     3
 8 Facility 3    2020-08-11 2020-08-12     North    Dingo             18     3
 9 Facility 3    2020-08-11 2020-08-12     North    Dingo             18     3
10 Facility 4    2020-08-11 2020-08-12     North    Bolo              49     4
# ℹ 9,104 more rows
# ℹ 2 more variables: age_group <chr>, counts <int>
…
