43 Dashboards with Shiny – The Epidemiologist R Handbook
…
It will be easier to work with this data if we use tidy data standards, so we should also transform into a longer data format, where age group is a column, and cases is another column. We can do this easily using what we’ve learned in the Pivoting data page.

malaria_data <- malaria_data %>%
  select(-newid) %>%
  pivot_longer(cols = starts_with("malaria_"), 
               names_to = "age_group", 
               values_to = "cases_reported")

print(malaria_data)

# A tibble: 12,152 × 7
   location_name data_date  submitted_date Province District age_group       
   <chr>         <date>     <date>         <chr>    <chr>    <chr>           
 1 Facility 1    2020-08-11 2020-08-12     North    Spring   malaria_rdt_0-4 
 2 Facility 1    2020-08-11 2020-08-12     North    Spring   malaria_rdt_5-14
 3 Facility 1    2020-08-11 2020-08-12     North    Spring   malaria_rdt_15  
 4 Facility 1    2020-08-11 2020-08-12     North    Spring   malaria_tot     
 5 Facility 2    2020-08-11 2020-08-12     North    Bolo     malaria_rdt_0-4 
 6 Facility 2    2020-08-11 2020-08-12     North    Bolo     malaria_rdt_5-14
 7 Facility 2    2020-08-11 2020-08-12     North    Bolo     malaria_rdt_15  
 8 Facility 2    2020-08-11 2020-08-12     North    Bolo     malaria_tot     
 9 Facility 3    2020-08-11 2020-08-12     North    Dingo    malaria_rdt_0-4 
10 Facility 3    2020-08-11 2020-08-12     North    Dingo    malaria_rdt_5-14
# ℹ 12,142 more rows
# ℹ 1 more variable: cases_reported <int>
…
# data frame of location names by district
facility_list <- malaria_data %>%
  group_by(location_name, District) %>%
  summarise() %>% 
  ungroup()

Let’s look at them:

all_districts

[1] "All"     "Spring"  "Bolo"    "Dingo"   "Barnard"

facility_list

# A tibble: 65 × 2
   location_name District
   <chr>         <chr>   
 1 Facility 1    Spring  
 2 Facility 10   Bolo    
 3 Facility 11   Spring  
 4 Facility 12   Dingo   
 5 Facility 13   Bolo    
 6 Facility 14   Dingo   
 7 Facility 15   Barnard 
 8 Facility 16   Barnard 
 9 Facility 17   Barnard 
10 Facility 18   Bolo    
# ℹ 55 more rows
…
