疫学のための R ハンドブック - 25 接触者の追跡{#contact-tracing}
…
他にも、感染者と接触者両方の年齢が含まれている Go.Data の関連データ（relationships データセット）を使用すると、感染者と接触者の年齢層の違いを表す人口ピラミッドを作成することもできます。関連データを用いて人口ピラミッドを作成する場合は、年齢変数をカテゴリー化し、数字型から因子（ファクタ）型にする必要があります（詳しくは、データクリーニングと主要関数の章を参照ください）。また、ggplot2 パッケージで図をプロットしやすくするために、データを縦型（long型）に変換する必要があります（詳細は、データの縦横変換をご覧ください）。

relation_age <- relationships %>% 
  select(source_age, target_age) %>% 
  transmute(                              # transmute() は mutate() と基本は同じだが、言及されていないすべての列を排除する機能を含む
    source_age_class = epikit::age_categories(source_age, breakers = seq(0, 80, 5)),
    target_age_class = epikit::age_categories(target_age, breakers = seq(0, 80, 5)),
    ) %>% 
  pivot_longer(cols = contains("class"), names_to = "category", values_to = "age_class")  # データを縦型（long 型）に変換する

relation_age

# A tibble: 200 × 2
   category         age_class
   <chr>            <fct>    
 1 source_age_class 80+      
 2 target_age_class 15-19    
 3 source_age_class <NA>     
 4 target_age_class 50-54    
 5 source_age_class <NA>     
 6 target_age_class 20-24    
 7 source_age_class 30-34    
 8 target_age_class 45-49    
 9 source_age_class 40-44    
10 target_age_class 30-34    
# ℹ 190 more rows
…
