EpiRhandbook en español - 8 Limpieza de datos y funciones básicas
…
          # también filtrar para mantener sólo el segundo brote
          date_onset > as.Date("2013-06-01") | (is.na(date_onset) & !hospital %in% c("Hospital A", "Hospital B")))

8.12 Cálculos por filas

Si deseas realizar un cálculo dentro de una fila, puedes utilizar rowwise() de dplyr. Consulta esta viñeta en línea sobre los cálculos por filas. Por ejemplo, este código aplica rowwise() y luego crea una nueva columna que suma el número de las columnas de síntomas especificadas que tienen valor “yes”, para cada fila Las columnas se especifican dentro de sum() por su nombre dentro de un vector c(). rowwise() es esencialmente un tipo especial de group_by(), por lo que es mejor utilizar ungroup() cuando hayas terminado (página sobre Agrupar datos).

linelist %>%
  rowwise() %>%
  mutate(num_symptoms = sum(c(fever, chills, cough, aches, vomit) == "yes")) %>% 
  ungroup() %>% 
  select(fever, chills, cough, aches, vomit, num_symptoms) # for display

# A tibble: 5,888 × 6
   fever chills cough aches vomit num_symptoms
   <chr> <chr>  <chr> <chr> <chr>        <int>
 1 no    no     yes   no    yes              2
 2 <NA>  <NA>   <NA>  <NA>  <NA>            NA
 3 <NA>  <NA>   <NA>  <NA>  <NA>            NA
 4 no    no     no    no    no               0
 5 no    no     yes   no    yes              2
 6 no    no     yes   no    yes              2
 7 <NA>  <NA>   <NA>  <NA>  <NA>            NA
 8 no    no     yes   no    yes              2
 9 no    no     yes   no    yes              2
10 no    no     yes   no    no               1
# ℹ 5,878 more rows
…
Especifica los criterios de la columna dentro de la función c_across() de dplyr. Esto se debe a que c_across (documentación) está diseñada para trabajar con rowwise() específicamente. Por ejemplo, el siguiente código:

Utiliza rowwise() para que la siguiente operación (sum()) se aplique dentro de cada fila (no sumando columnas enteras)

Crea una nueva columna num_NA_dates, definida para cada fila como el número de columnas (con nombre que contiene “date”) para las que is.na() se evaluó como TRUE (son valores faltantes).

ungroup() para eliminar los efectos de rowwise() en los pasos siguientes

linelist %>%
  rowwise() %>%
  mutate(num_NA_dates = sum(is.na(c_across(contains("date"))))) %>% 
  ungroup() %>% 
  select(num_NA_dates, contains("date")) # for display

# A tibble: 5,888 × 5
   num_NA_dates date_infection date_onset date_hospitalisation date_outcome
          <int> <date>         <date>     <date>               <date>      
 1            1 2014-05-08     2014-05-13 2014-05-15           NA          
 2            1 NA             2014-05-13 2014-05-14           2014-05-18  
 3            1 NA             2014-05-16 2014-05-18           2014-05-30  
 4            1 2014-05-04     2014-05-18 2014-05-20           NA          
 5            0 2014-05-18     2014-05-21 2014-05-22           2014-05-29  
 6            0 2014-05-03     2014-05-22 2014-05-23           2014-05-24  
 7            0 2014-05-22     2014-05-27 2014-05-29           2014-06-01  
 8            0 2014-05-28     2014-06-02 2014-06-03           2014-06-07  
 9            1 NA             2014-06-05 2014-06-06           2014-06-18  
10            1 NA             2014-06-05 2014-06-07           2014-06-09  
# ℹ 5,878 more rows

También podrías proporcionar otras funciones, como max() para obtener la fecha más reciente o más reciente de cada fila:

linelist %>%
  rowwise() %>%
  mutate(latest_date = max(c_across(contains("date")), na.rm=T)) %>% 
  ungroup() %>% 
  select(latest_date, contains("date"))  # for display

# A tibble: 5,888 × 5
   latest_date date_infection date_onset date_hospitalisation date_outcome
   <date>      <date>         <date>     <date>               <date>      
 1 2014-05-15  2014-05-08     2014-05-13 2014-05-15           NA          
 2 2014-05-18  NA             2014-05-13 2014-05-14           2014-05-18  
 3 2014-05-30  NA             2014-05-16 2014-05-18           2014-05-30  
 4 2014-05-20  2014-05-04     2014-05-18 2014-05-20           NA          
 5 2014-05-29  2014-05-18     2014-05-21 2014-05-22           2014-05-29  
 6 2014-05-24  2014-05-03     2014-05-22 2014-05-23           2014-05-24  
 7 2014-06-01  2014-05-22     2014-05-27 2014-05-29           2014-06-01  
 8 2014-06-07  2014-05-28     2014-06-02 2014-06-03           2014-06-07  
 9 2014-06-18  NA             2014-06-05 2014-06-06           2014-06-18  
10 2014-06-09  NA             2014-06-05 2014-06-07           2014-06-09  
# ℹ 5,878 more rows
…
