25 Rastreo de contactos – EpiRhandbook en español
…
Con la estructura de datos Go.Data, los datos relationships contienen las edades tanto de los casos como de los contactos, por lo que podrías utilizar ese conjunto de datos y crear una pirámide de edades que muestre las diferencias entre estos dos grupos de personas. El dataframe relationships será mutado para transformar las columnas numéricas de edad en categorías (véase la página de limpieza de datos y funciones básicas). También pivotamos el dataframe a largo para facilitar el trazado con ggplot2 (ver Pivotar datos).

relation_age <- relationships %>% 
  select(source_age, target_age) %>% 
  transmute(                              # transmute es como mutate() pero elimina todas las demás columnas no mencionadas
    source_age_class = epikit::age_categories(source_age, breakers = seq(0, 80, 5)),
    target_age_class = epikit::age_categories(target_age, breakers = seq(0, 80, 5)),
    ) %>% 
  pivot_longer(cols = contains("class"), names_to = "category", values_to = "age_class")  # pivotar largo

relation_age

# A tibble: 200 × 2
   category         age_class
   <chr>            <fct>    
 1 source_age_class 80+      
 2 target_age_class 15-19    
 3 source_age_class <NA>     
 4 target_age_class 50-54    
 5 source_age_class <NA>     
 6 target_age_class 20-24    
 7 source_age_class 30-34    
 8 target_age_class 45-49    
 9 source_age_class 40-44    
10 target_age_class 30-34    
# ℹ 190 more rows
…
