EpiRhandbook en español - 13 Agrupar datos
…
La función group_by() de dplyr agrupa las filas por los valores únicos de la columna que se le especifica. Si se especifican varias columnas, las filas se agrupan por las combinaciones únicas de valores entre las columnas. Cada valor único (o combinación de valores) constituye un grupo. Los cambios posteriores en los datos o los cálculos pueden realizarse en el contexto de cada grupo.

Por ejemplo, el siguiente comando toma linelist y agrupa las filas por valores únicos en la columna outcome, guardando la salida como un nuevo dataframe ll_by_outcome. La(s) columna(s) de agrupación se colocan dentro de los paréntesis de la función group_by().

ll_by_outcome <- linelist %>% 
  group_by(outcome)

Ten en cuenta que no hay ningún cambio perceptible en los datos después de ejecutar group_by(), hasta que se aplique otro verbo de dplyr como mutate(), summarise(), o arrange() en el dataframe “agrupado”.

Sin embargo, puedes “ver” las agrupaciones imprimiendo el dataframe. Al imprimir un dataframe agrupado, verás que se ha transformado en un objeto de clase tibble que, al imprimirse, muestra qué agrupaciones se han aplicado y cuántos grupos están -escritos justo encima de la fila de cabecera.

# print para ver los grupos que están activos
ll_by_outcome

# A tibble: 5,888 × 30
# Groups:   outcome [3]
   case_id generation date_infection date_onset date_hospitalisation
   <chr>        <dbl> <date>         <date>     <date>              
 1 5fe599           4 2014-05-08     2014-05-13 2014-05-15          
 2 8689b7           4 NA             2014-05-13 2014-05-14          
 3 11f8ea           2 NA             2014-05-16 2014-05-18          
 4 b8812a           3 2014-05-04     2014-05-18 2014-05-20          
 5 893f25           3 2014-05-18     2014-05-21 2014-05-22          
 6 be99c8           3 2014-05-03     2014-05-22 2014-05-23          
 7 07e3e8           4 2014-05-22     2014-05-27 2014-05-29          
 8 369449           4 2014-05-28     2014-06-02 2014-06-03          
 9 f393b4           4 NA             2014-06-05 2014-06-06          
10 1389ca           4 NA             2014-06-05 2014-06-07          
# ℹ 5,878 more rows
# ℹ 25 more variables: date_outcome <date>, outcome <chr>, gender <chr>,
#   age <dbl>, age_unit <chr>, age_years <dbl>, age_cat <fct>, age_cat5 <fct>,
#   hospital <chr>, lon <dbl>, lat <dbl>, infector <chr>, source <chr>,
#   wt_kg <dbl>, ht_cm <dbl>, ct_blood <dbl>, fever <chr>, chills <chr>,
#   cough <chr>, aches <chr>, vomit <chr>, temp <dbl>, time_admission <chr>,
#   bmi <dbl>, days_onset_hosp <dbl>
…
Añadir recuentos

A diferencia de count() y summarise(), puedes utilizar add_count() para añadir una nueva columna n con los recuentos de filas por grupo conservando todas las demás columnas del dataframe.

Esto significa que el número de recuentos de un grupo, en la nueva columna n, se imprimirá en cada fila del grupo. Para fines de demostración, añadimos esta columna y luego reordenamos las columnas para facilitar la visualización. Consulta la sección siguiente sobre filtrar por tamaño del grupo para ver otro ejemplo.

linelist %>% 
  as_tibble() %>%                   # convertir a tibble para una mejor impresión  
  add_count(hospital) %>%           # añadir la columna n con los recuentos por hospital
  select(hospital, n, everything()) # reordenar para fines de demostración

# A tibble: 5,888 × 31
   hospital                       n case_id generation date_infection date_onset
   <chr>                      <int> <chr>        <dbl> <date>         <date>    
 1 Other                        885 5fe599           4 2014-05-08     2014-05-13
 2 Missing                     1469 8689b7           4 NA             2014-05-13
 3 St. Mark's Maternity Hosp…   422 11f8ea           2 NA             2014-05-16
 4 Port Hospital               1762 b8812a           3 2014-05-04     2014-05-18
 5 Military Hospital            896 893f25           3 2014-05-18     2014-05-21
 6 Port Hospital               1762 be99c8           3 2014-05-03     2014-05-22
 7 Missing                     1469 07e3e8           4 2014-05-22     2014-05-27
 8 Missing                     1469 369449           4 2014-05-28     2014-06-02
 9 Missing                     1469 f393b4           4 NA             2014-06-05
10 Missing                     1469 1389ca           4 NA             2014-06-05
# ℹ 5,878 more rows
# ℹ 25 more variables: date_hospitalisation <date>, date_outcome <date>,
#   outcome <chr>, gender <chr>, age <dbl>, age_unit <chr>, age_years <dbl>,
#   age_cat <fct>, age_cat5 <fct>, lon <dbl>, lat <dbl>, infector <chr>,
#   source <chr>, wt_kg <dbl>, ht_cm <dbl>, ct_blood <dbl>, fever <chr>,
#   chills <chr>, cough <chr>, aches <chr>, vomit <chr>, temp <dbl>,
#   time_admission <chr>, bmi <dbl>, days_onset_hosp <dbl>
…
Agrupar linelist por columna hospital

Ordenar los registros por date_hospitalisation de más reciente a la más antigua dentro de cada grupo de hospitales

Clasificar para recuperar las 5 primeras filas de cada hospital

linelist %>%
  group_by(hospital) %>%
  arrange(hospital, date_hospitalisation) %>%
  slice_head(n = 5) %>% 
  arrange(hospital) %>%                            # para mostrar
  select(case_id, hospital, date_hospitalisation)  # para mostrar

# A tibble: 30 × 3
# Groups:   hospital [6]
   case_id hospital          date_hospitalisation
   <chr>   <chr>             <date>              
 1 20b688  Central Hospital  2014-05-06          
 2 d58402  Central Hospital  2014-05-10          
 3 b8f2fd  Central Hospital  2014-05-13          
 4 acf422  Central Hospital  2014-05-28          
 5 275cc7  Central Hospital  2014-05-28          
 6 d1fafd  Military Hospital 2014-04-17          
 7 974bc1  Military Hospital 2014-05-13          
 8 6a9004  Military Hospital 2014-05-13          
 9 09e386  Military Hospital 2014-05-14          
10 865581  Military Hospital 2014-05-15          
# ℹ 20 more rows
…
Consulta la página de De-duplicación para ver más ejemplos y detalles sobre slice().

Filtro por tamaño de grupo

La función add_count() añade una columna n a los datos originales dando el número de filas en el grupo de esa fila.

A continuación, add_count() se aplica a la columna hospital, por lo que los valores de la nueva columna n reflejan el número de filas del grupo de hospitales de esa fila. Observe cómo se repiten los valores de la columna n. En el ejemplo siguiente, el nombre de la columna n podría cambiarse utilizando name = dentro de add_count(). Para fines de demostración reordenamos las columnas con select().

linelist %>% 
  as_tibble() %>% 
  add_count(hospital) %>%          # añadir "número de filas admitidas en el mismo hospital que esta fila" 
  select(hospital, n, everything())

# A tibble: 5,888 × 31
   hospital                       n case_id generation date_infection date_onset
   <chr>                      <int> <chr>        <dbl> <date>         <date>    
 1 Other                        885 5fe599           4 2014-05-08     2014-05-13
 2 Missing                     1469 8689b7           4 NA             2014-05-13
 3 St. Mark's Maternity Hosp…   422 11f8ea           2 NA             2014-05-16
 4 Port Hospital               1762 b8812a           3 2014-05-04     2014-05-18
 5 Military Hospital            896 893f25           3 2014-05-18     2014-05-21
 6 Port Hospital               1762 be99c8           3 2014-05-03     2014-05-22
 7 Missing                     1469 07e3e8           4 2014-05-22     2014-05-27
 8 Missing                     1469 369449           4 2014-05-28     2014-06-02
 9 Missing                     1469 f393b4           4 NA             2014-06-05
10 Missing                     1469 1389ca           4 NA             2014-06-05
# ℹ 5,878 more rows
# ℹ 25 more variables: date_hospitalisation <date>, date_outcome <date>,
#   outcome <chr>, gender <chr>, age <dbl>, age_unit <chr>, age_years <dbl>,
#   age_cat <fct>, age_cat5 <fct>, lon <dbl>, lat <dbl>, infector <chr>,
#   source <chr>, wt_kg <dbl>, ht_cm <dbl>, ct_blood <dbl>, fever <chr>,
#   chills <chr>, cough <chr>, aches <chr>, vomit <chr>, temp <dbl>,
#   time_admission <chr>, bmi <dbl>, days_onset_hosp <dbl>
…
  # nuevas columnas
  mutate(
    # media de días hasta el ingreso por hospital (redondeada a 1 decimal)
    group_delay_admit = round(mean(days_onset_hosp, na.rm=T), 1),
    
    # diferencia entre la demora de la fila y la demora media en su hospital (redondeada a 1 decimal)
    diff_to_group     = round(days_onset_hosp - group_delay_admit, 1)) %>%
  
  # seleccionar sólo ciertas filas - con fines de demostración/visualización
  select(case_id, hospital, days_onset_hosp, group_delay_admit, diff_to_group)

# A tibble: 5,888 × 5
# Groups:   hospital [6]
   case_id hospital              days_onset_hosp group_delay_admit diff_to_group
   <chr>   <chr>                           <dbl>             <dbl>         <dbl>
 1 5fe599  Other                               2               2             0  
 2 8689b7  Missing                             1               2.1          -1.1
 3 11f8ea  St. Mark's Maternity…               2               2.1          -0.1
 4 b8812a  Port Hospital                       2               2.1          -0.1
 5 893f25  Military Hospital                   1               2.1          -1.1
 6 be99c8  Port Hospital                       1               2.1          -1.1
 7 07e3e8  Missing                             2               2.1          -0.1
 8 369449  Missing                             1               2.1          -1.1
 9 f393b4  Missing                             1               2.1          -1.1
10 1389ca  Missing                             2               2.1          -0.1
# ℹ 5,878 more rows
…
