Le Epi R Handbook - 37 Chaînes de transmission
…
En examinant les objets epicontacts, on peut voir que la colonne case_id de la linelist a été renommée à id et que les colonnes case_id et infector des contacts ont été renommées à from et to. Cela garantit la cohérence dans le traitement, visualisation et analyse de l’objet epicontacts.

## visualiser l'objet epicontacts
epic

/// Epidemiological Contacts //

  // class: epicontacts
  // 5,888 cases in linelist; 3,800 contacts; directed 

  // linelist

# A tibble: 5,888 × 30
   id     generation date_infection date_onset date_hospitalisation date_outcome
   <chr>       <dbl> <date>         <date>     <date>               <date>      
 1 5fe599          4 2014-05-08     2014-05-13 2014-05-15           NA          
 2 8689b7          4 NA             2014-05-13 2014-05-14           2014-05-18  
 3 11f8ea          2 NA             2014-05-16 2014-05-18           2014-05-30  
 4 b8812a          3 2014-05-04     2014-05-18 2014-05-20           NA          
 5 893f25          3 2014-05-18     2014-05-21 2014-05-22           2014-05-29  
 6 be99c8          3 2014-05-03     2014-05-22 2014-05-23           2014-05-24  
 7 07e3e8          4 2014-05-22     2014-05-27 2014-05-29           2014-06-01  
 8 369449          4 2014-05-28     2014-06-02 2014-06-03           2014-06-07  
 9 f393b4          4 NA             2014-06-05 2014-06-06           2014-06-18  
10 1389ca          4 NA             2014-06-05 2014-06-07           2014-06-09  
# ℹ 5,878 more rows
# ℹ 24 more variables: outcome <chr>, gender <chr>, age <dbl>, age_unit <chr>,
#   age_years <dbl>, age_cat <fct>, age_cat5 <fct>, hospital <chr>, lon <dbl>,
#   lat <dbl>, infector <chr>, source <chr>, wt_kg <dbl>, ht_cm <dbl>,
#   ct_blood <dbl>, fever <chr>, chills <chr>, cough <chr>, aches <chr>,
#   vomit <chr>, temp <dbl>, time_admission <chr>, bmi <dbl>,
#   days_onset_hosp <dbl>

  // contacts

# A tibble: 3,800 × 4
   from   to     location   duration
   <chr>  <chr>  <chr>         <int>
 1 f547d6 5fe599 Community         7
 2 f90f5f b8812a Nosocomial        6
 3 11f8ea 893f25 Nosocomial        4
 4 aec8ec be99c8 Community         7
 5 893f25 07e3e8 Nosocomial        4
 6 133ee7 369449 Nosocomial        2
 7 996f3a 2978ac Nosocomial        1
 8 133ee7 57a565 Nosocomial        6
 9 37a6f6 fc15ef Community         2
10 9f6884 2eaa9a Nosocomial        9
# ℹ 3,790 more rows
…
/// Epidemiological Contacts //

  // class: epicontacts
  // 69 cases in linelist; 1,866 contacts; directed 

  // linelist

# A tibble: 69 × 30
   id     generation date_infection date_onset date_hospitalisation date_outcome
   <chr>       <dbl> <date>         <date>     <date>               <date>      
 1 5fe599          4 2014-05-08     2014-05-13 2014-05-15           NA          
 2 893f25          3 2014-05-18     2014-05-21 2014-05-22           2014-05-29  
 3 2978ac          4 2014-05-30     2014-06-06 2014-06-08           2014-06-15  
 4 57a565          4 2014-05-28     2014-06-13 2014-06-15           NA          
 5 fc15ef          6 2014-06-14     2014-06-16 2014-06-17           2014-07-09  
 6 99e8fa          7 2014-06-24     2014-06-28 2014-06-29           2014-07-09  
 7 f327be          6 2014-06-14     2014-07-12 2014-07-13           2014-07-14  
 8 90e5fe          5 2014-06-18     2014-07-13 2014-07-14           2014-07-16  
 9 a47529          5 2014-06-13     2014-07-17 2014-07-18           2014-07-26  
10 da8ecb          5 2014-06-20     2014-07-18 2014-07-20           2014-08-01  
# ℹ 59 more rows
# ℹ 24 more variables: outcome <chr>, gender <chr>, age <dbl>, age_unit <chr>,
#   age_years <dbl>, age_cat <fct>, age_cat5 <fct>, hospital <chr>, lon <dbl>,
#   lat <dbl>, infector <chr>, source <chr>, wt_kg <dbl>, ht_cm <dbl>,
#   ct_blood <dbl>, fever <chr>, chills <chr>, cough <chr>, aches <chr>,
#   vomit <chr>, temp <dbl>, time_admission <chr>, bmi <dbl>,
#   days_onset_hosp <dbl>

  // contacts

# A tibble: 1,866 × 4
   from   to     location   duration
   <chr>  <chr>  <chr>         <int>
 1 f90f5f b8812a Nosocomial        6
 2 11f8ea 893f25 Nosocomial        4
 3 893f25 07e3e8 Nosocomial        4
 4 133ee7 369449 Nosocomial        2
 5 996f3a 2978ac Nosocomial        1
 6 133ee7 57a565 Nosocomial        6
 7 9f6884 2eaa9a Nosocomial        9
 8 ab634e 99e8fa Nosocomial        5
 9 5d9e4d 8bd1e8 Nosocomial        4
10 ea3740 90e5fe Nosocomial        9
# ℹ 1,856 more rows
…
