2 Contact tracing | The Epidemiologist R Handbook
…
With the Go.Data data structure, the relationships dataset contains the ages of both cases and contacts, so you could use that dataset and create an age pyramid showing the differences between these two groups of people. The relationships data frame will be mutated to transform the numberic age columns into categories (see the [Cleaning data and core functions] page). We also pivot the dataframe longer to facilitate easy plotting with ggplot2 (see [Pivoting data]).

relation_age <- relationships %>% 
  select(source_age, target_age) %>% 
  transmute(                              # transmute is like mutate() but removes all other columns not mentioned
    source_age_class = epikit::age_categories(source_age, breakers = seq(0, 80, 5)),
    target_age_class = epikit::age_categories(target_age, breakers = seq(0, 80, 5)),
    ) %>% 
  pivot_longer(cols = contains("class"), names_to = "category", values_to = "age_class")  # pivot longer

relation_age

## # A tibble: 200 x 2
##    category         age_class
##    <chr>            <fct>    
##  1 source_age_class 80+      
##  2 target_age_class 15-19    
##  3 source_age_class <NA>     
##  4 target_age_class 50-54    
##  5 source_age_class <NA>     
##  6 target_age_class 20-24    
##  7 source_age_class 30-34    
##  8 target_age_class 45-49    
##  9 source_age_class 40-44    
## 10 target_age_class 30-34    
## # ... with 190 more rows
…
The number of contacts per case can be an important metric to assess quality of contact enumeration and the compliance of the population toward public health response.

Depending on your data structure, this can be assessed with a dataset that contains all cases and contacts. In the Go.Data datasets, the links between cases (“sources”) and contacts (“targets”) is stored in the relationships dataset.

In this dataset, each row is a contact, and the source case is listed in the row. There are no contacts who have relationships with multiple cases, but if this exists you may need to account for those before plotting (and explore them too!).

We begin by counting the number of rows (contacts) per source case. This is saved as a data frame.

contacts_per_case <- relationships %>% 
  count(source_visualid)

contacts_per_case

## # A tibble: 23 x 2
##    source_visualid     n
##    <chr>           <int>
##  1 CASE-2020-0001     13
##  2 CASE-2020-0002      5
##  3 CASE-2020-0003      2
##  4 CASE-2020-0004      4
##  5 CASE-2020-0005      5
##  6 CASE-2020-0006      3
##  7 CASE-2020-0008      3
##  8 CASE-2020-0009      3
##  9 CASE-2020-0010      3
## 10 CASE-2020-0012      3
## # ... with 13 more rows
…
