Manual de R para Epidemiologistas - 37 Cadeias de Transmissão
…
Ao examinarmos objetos do tipo epicontacts, podemos ver que a coluna case_id na linelist foi renomeada para id e as colunas case_id e infector nos contatos foram renomeadas para from e to. Isso garante a consistência nas operações de manipulação, visualização e análise subsequentes.

## visualiza o objeto epicontacts
epic

/// Epidemiological Contacts //

  // class: epicontacts
  // 5,888 cases in linelist; 3,800 contacts; directed 

  // linelist

# A tibble: 5,888 × 30
   id     generation date_infection date_onset date_hospitalisation date_outcome
   <chr>       <dbl> <date>         <date>     <date>               <date>      
 1 5fe599          4 2014-05-08     2014-05-13 2014-05-15           NA          
 2 8689b7          4 NA             2014-05-13 2014-05-14           2014-05-18  
 3 11f8ea          2 NA             2014-05-16 2014-05-18           2014-05-30  
 4 b8812a          3 2014-05-04     2014-05-18 2014-05-20           NA          
 5 893f25          3 2014-05-18     2014-05-21 2014-05-22           2014-05-29  
 6 be99c8          3 2014-05-03     2014-05-22 2014-05-23           2014-05-24  
 7 07e3e8          4 2014-05-22     2014-05-27 2014-05-29           2014-06-01  
 8 369449          4 2014-05-28     2014-06-02 2014-06-03           2014-06-07  
 9 f393b4          4 NA             2014-06-05 2014-06-06           2014-06-18  
10 1389ca          4 NA             2014-06-05 2014-06-07           2014-06-09  
# ℹ 5,878 more rows
# ℹ 24 more variables: outcome <chr>, gender <chr>, age <dbl>, age_unit <chr>,
#   age_years <dbl>, age_cat <fct>, age_cat5 <fct>, hospital <chr>, lon <dbl>,
#   lat <dbl>, infector <chr>, source <chr>, wt_kg <dbl>, ht_cm <dbl>,
#   ct_blood <dbl>, fever <chr>, chills <chr>, cough <chr>, aches <chr>,
#   vomit <chr>, temp <dbl>, time_admission <chr>, bmi <dbl>,
#   days_onset_hosp <dbl>

  // contacts

# A tibble: 3,800 × 4
   from   to     location   duration
   <chr>  <chr>  <chr>         <int>
 1 f547d6 5fe599 Community         8
 2 f90f5f b8812a Community         6
 3 11f8ea 893f25 Nosocomial        2
 4 aec8ec be99c8 Community        10
 5 893f25 07e3e8 Nosocomial        4
 6 133ee7 369449 Community         8
 7 996f3a 2978ac Community         1
 8 133ee7 57a565 Nosocomial        6
 9 37a6f6 fc15ef Nosocomial       10
10 9f6884 2eaa9a Community         1
# ℹ 3,790 more rows
…
/// Epidemiological Contacts //

  // class: epicontacts
  // 69 cases in linelist; 1,931 contacts; directed 

  // linelist

# A tibble: 69 × 30
   id     generation date_infection date_onset date_hospitalisation date_outcome
   <chr>       <dbl> <date>         <date>     <date>               <date>      
 1 5fe599          4 2014-05-08     2014-05-13 2014-05-15           NA          
 2 893f25          3 2014-05-18     2014-05-21 2014-05-22           2014-05-29  
 3 2978ac          4 2014-05-30     2014-06-06 2014-06-08           2014-06-15  
 4 57a565          4 2014-05-28     2014-06-13 2014-06-15           NA          
 5 fc15ef          6 2014-06-14     2014-06-16 2014-06-17           2014-07-09  
 6 99e8fa          7 2014-06-24     2014-06-28 2014-06-29           2014-07-09  
 7 f327be          6 2014-06-14     2014-07-12 2014-07-13           2014-07-14  
 8 90e5fe          5 2014-06-18     2014-07-13 2014-07-14           2014-07-16  
 9 a47529          5 2014-06-13     2014-07-17 2014-07-18           2014-07-26  
10 da8ecb          5 2014-06-20     2014-07-18 2014-07-20           2014-08-01  
# ℹ 59 more rows
# ℹ 24 more variables: outcome <chr>, gender <chr>, age <dbl>, age_unit <chr>,
#   age_years <dbl>, age_cat <fct>, age_cat5 <fct>, hospital <chr>, lon <dbl>,
#   lat <dbl>, infector <chr>, source <chr>, wt_kg <dbl>, ht_cm <dbl>,
#   ct_blood <dbl>, fever <chr>, chills <chr>, cough <chr>, aches <chr>,
#   vomit <chr>, temp <dbl>, time_admission <chr>, bmi <dbl>,
#   days_onset_hosp <dbl>

  // contacts

# A tibble: 1,931 × 4
   from   to     location   duration
   <chr>  <chr>  <chr>         <int>
 1 11f8ea 893f25 Nosocomial        2
 2 893f25 07e3e8 Nosocomial        4
 3 133ee7 57a565 Nosocomial        6
 4 37a6f6 fc15ef Nosocomial       10
 5 4802b1 bbfa93 Nosocomial        2
 6 a75c7f 7f5a01 Nosocomial        4
 7 8e104d ddddee Nosocomial        8
 8 b799eb bc2adf Nosocomial        7
 9 a15e13 f327be Nosocomial       10
10 ea3740 90e5fe Nosocomial        4
# ℹ 1,921 more rows
…
