13 Grouping data | The Epidemiologist R Handbook
…
The function group_by() from dplyr groups the rows by the unique values in the column specified to it. If multiple columns are specified, rows are grouped by the unique combinations of values across the columns. Each unique value (or combination of values) constitutes a group. Subsequent changes to the dataset or calculations can then be performed within the context of each group.

For example, the command below takes the linelist and groups the rows by unique values in the column outcome, saving the output as a new data frame ll_by_outcome. The grouping column(s) are placed inside the parentheses of the function group_by().

ll_by_outcome <- linelist %>% 
  group_by(outcome)

Note that there is no perceptible change to the dataset after running group_by(), until another dplyr verb such as mutate(), summarise(), or arrange() is applied on the “grouped” data frame.

You can however “see” the groupings by printing the data frame. When you print a grouped data frame, you will see it has been transformed into a tibble class object which, when printed, displays which groupings have been applied and how many groups there are - written just above the header row.

# print to see which groups are active
ll_by_outcome

## # A tibble: 5,888 x 30
## # Groups:   outcome [3]
##    case_id generation date_infection date_onset date_hospitalisa~ date_outcome outcome gender   age age_unit age_years age_cat age_cat5 hospital   lon   lat infector
##    <chr>        <dbl> <date>         <date>     <date>            <date>       <chr>   <chr>  <dbl> <chr>        <dbl> <fct>   <fct>    <chr>    <dbl> <dbl> <chr>   
##  1 5fe599           4 2014-05-08     2014-05-13 2014-05-15        NA           <NA>    m          2 years            2 0-4     0-4      Other    -13.2  8.47 f547d6  
##  2 8689b7           4 NA             2014-05-13 2014-05-14        2014-05-18   Recover f          3 years            3 0-4     0-4      Missing  -13.2  8.45 <NA>    
##  3 11f8ea           2 NA             2014-05-16 2014-05-18        2014-05-30   Recover m         56 years           56 50-69   55-59    St. Mar~ -13.2  8.46 <NA>    
##  4 b8812a           3 2014-05-04     2014-05-18 2014-05-20        NA           <NA>    f         18 years           18 15-19   15-19    Port Ho~ -13.2  8.48 f90f5f  
##  5 893f25           3 2014-05-18     2014-05-21 2014-05-22        2014-05-29   Recover m          3 years            3 0-4     0-4      Militar~ -13.2  8.46 11f8ea  
##  6 be99c8           3 2014-05-03     2014-05-22 2014-05-23        2014-05-24   Recover f         16 years           16 15-19   15-19    Port Ho~ -13.2  8.46 aec8ec  
##  7 07e3e8           4 2014-05-22     2014-05-27 2014-05-29        2014-06-01   Recover f         16 years           16 15-19   15-19    Missing  -13.2  8.46 893f25  
##  8 369449           4 2014-05-28     2014-06-02 2014-06-03        2014-06-07   Death   f          0 years            0 0-4     0-4      Missing  -13.2  8.46 133ee7  
##  9 f393b4           4 NA             2014-06-05 2014-06-06        2014-06-18   Recover m         61 years           61 50-69   60-64    Missing  -13.2  8.46 <NA>    
## 10 1389ca           4 NA             2014-06-05 2014-06-07        2014-06-09   Death   f         27 years           27 20-29   25-29    Missing  -13.3  8.47 <NA>    
## # ... with 5,878 more rows, and 13 more variables: source <chr>, wt_kg <dbl>, ht_cm <dbl>, ct_blood <dbl>, fever <chr>, chills <chr>, cough <chr>, aches <chr>,
## #   vomit <chr>, temp <dbl>, time_admission <chr>, bmi <dbl>, days_onset_hosp <dbl>
…
Add counts

In contrast to count() and summarise(), you can use add_count() to add a new column n with the counts of rows per group while retaining all the other data frame columns.

This means that a group’s count number, in the new column n, will be printed in each row of the group. For demonstration purposes, we add this column and then re-arrange the columns for easier viewing. See the section below on filter on group size for another example.

linelist %>% 
  as_tibble() %>%                   # convert to tibble for nicer printing 
  add_count(hospital) %>%           # add column n with counts by hospital
  select(hospital, n, everything()) # re-arrange for demo purposes

## # A tibble: 5,888 x 31
##    hospital         n case_id generation date_infection date_onset date_hospitalis~ date_outcome outcome gender   age age_unit age_years age_cat age_cat5   lon   lat
##    <chr>        <int> <chr>        <dbl> <date>         <date>     <date>           <date>       <chr>   <chr>  <dbl> <chr>        <dbl> <fct>   <fct>    <dbl> <dbl>
##  1 Other          885 5fe599           4 2014-05-08     2014-05-13 2014-05-15       NA           <NA>    m          2 years            2 0-4     0-4      -13.2  8.47
##  2 Missing       1469 8689b7           4 NA             2014-05-13 2014-05-14       2014-05-18   Recover f          3 years            3 0-4     0-4      -13.2  8.45
##  3 St. Mark's ~   422 11f8ea           2 NA             2014-05-16 2014-05-18       2014-05-30   Recover m         56 years           56 50-69   55-59    -13.2  8.46
##  4 Port Hospit~  1762 b8812a           3 2014-05-04     2014-05-18 2014-05-20       NA           <NA>    f         18 years           18 15-19   15-19    -13.2  8.48
##  5 Military Ho~   896 893f25           3 2014-05-18     2014-05-21 2014-05-22       2014-05-29   Recover m          3 years            3 0-4     0-4      -13.2  8.46
##  6 Port Hospit~  1762 be99c8           3 2014-05-03     2014-05-22 2014-05-23       2014-05-24   Recover f         16 years           16 15-19   15-19    -13.2  8.46
##  7 Missing       1469 07e3e8           4 2014-05-22     2014-05-27 2014-05-29       2014-06-01   Recover f         16 years           16 15-19   15-19    -13.2  8.46
##  8 Missing       1469 369449           4 2014-05-28     2014-06-02 2014-06-03       2014-06-07   Death   f          0 years            0 0-4     0-4      -13.2  8.46
##  9 Missing       1469 f393b4           4 NA             2014-06-05 2014-06-06       2014-06-18   Recover m         61 years           61 50-69   60-64    -13.2  8.46
## 10 Missing       1469 1389ca           4 NA             2014-06-05 2014-06-07       2014-06-09   Death   f         27 years           27 20-29   25-29    -13.3  8.47
## # ... with 5,878 more rows, and 14 more variables: infector <chr>, source <chr>, wt_kg <dbl>, ht_cm <dbl>, ct_blood <dbl>, fever <chr>, chills <chr>, cough <chr>,
## #   aches <chr>, vomit <chr>, temp <dbl>, time_admission <chr>, bmi <dbl>, days_onset_hosp <dbl>
…
Group the linelist by column hospital

Arrange the records from latest to earliest date_hospitalisation within each hospital group

Slice to retrieve the first 5 rows from each hospital

linelist %>%
  group_by(hospital) %>%
  arrange(hospital, date_hospitalisation) %>%
  slice_head(n = 5) %>% 
  arrange(hospital) %>%                            # for display
  select(case_id, hospital, date_hospitalisation)  # for display

## # A tibble: 30 x 3
## # Groups:   hospital [6]
##    case_id hospital          date_hospitalisation
##    <chr>   <chr>             <date>              
##  1 20b688  Central Hospital  2014-05-06          
##  2 d58402  Central Hospital  2014-05-10          
##  3 b8f2fd  Central Hospital  2014-05-13          
##  4 acf422  Central Hospital  2014-05-28          
##  5 275cc7  Central Hospital  2014-05-28          
##  6 d1fafd  Military Hospital 2014-04-17          
##  7 974bc1  Military Hospital 2014-05-13          
##  8 6a9004  Military Hospital 2014-05-13          
##  9 09e386  Military Hospital 2014-05-14          
## 10 865581  Military Hospital 2014-05-15          
## # ... with 20 more rows
…
See the De-duplication page for more examples and detail on slice().

Filter on group size

The function add_count() adds a column n to the original data giving the number of rows in that row’s group.

Shown below, add_count() is applied to the column hospital, so the values in the new column n reflect the number of rows in that row’s hospital group. Note how values in column n are repeated. In the example below, the column name n could be changed using name = within add_count(). For demonstration purposes we re-arrange the columns with select().

linelist %>% 
  as_tibble() %>% 
  add_count(hospital) %>%          # add "number of rows admitted to same hospital as this row" 
  select(hospital, n, everything())

## # A tibble: 5,888 x 31
##    hospital         n case_id generation date_infection date_onset date_hospitalis~ date_outcome outcome gender   age age_unit age_years age_cat age_cat5   lon   lat
##    <chr>        <int> <chr>        <dbl> <date>         <date>     <date>           <date>       <chr>   <chr>  <dbl> <chr>        <dbl> <fct>   <fct>    <dbl> <dbl>
##  1 Other          885 5fe599           4 2014-05-08     2014-05-13 2014-05-15       NA           <NA>    m          2 years            2 0-4     0-4      -13.2  8.47
##  2 Missing       1469 8689b7           4 NA             2014-05-13 2014-05-14       2014-05-18   Recover f          3 years            3 0-4     0-4      -13.2  8.45
##  3 St. Mark's ~   422 11f8ea           2 NA             2014-05-16 2014-05-18       2014-05-30   Recover m         56 years           56 50-69   55-59    -13.2  8.46
##  4 Port Hospit~  1762 b8812a           3 2014-05-04     2014-05-18 2014-05-20       NA           <NA>    f         18 years           18 15-19   15-19    -13.2  8.48
##  5 Military Ho~   896 893f25           3 2014-05-18     2014-05-21 2014-05-22       2014-05-29   Recover m          3 years            3 0-4     0-4      -13.2  8.46
##  6 Port Hospit~  1762 be99c8           3 2014-05-03     2014-05-22 2014-05-23       2014-05-24   Recover f         16 years           16 15-19   15-19    -13.2  8.46
##  7 Missing       1469 07e3e8           4 2014-05-22     2014-05-27 2014-05-29       2014-06-01   Recover f         16 years           16 15-19   15-19    -13.2  8.46
##  8 Missing       1469 369449           4 2014-05-28     2014-06-02 2014-06-03       2014-06-07   Death   f          0 years            0 0-4     0-4      -13.2  8.46
##  9 Missing       1469 f393b4           4 NA             2014-06-05 2014-06-06       2014-06-18   Recover m         61 years           61 50-69   60-64    -13.2  8.46
## 10 Missing       1469 1389ca           4 NA             2014-06-05 2014-06-07       2014-06-09   Death   f         27 years           27 20-29   25-29    -13.3  8.47
## # ... with 5,878 more rows, and 14 more variables: infector <chr>, source <chr>, wt_kg <dbl>, ht_cm <dbl>, ct_blood <dbl>, fever <chr>, chills <chr>, cough <chr>,
## #   aches <chr>, vomit <chr>, temp <dbl>, time_admission <chr>, bmi <dbl>, days_onset_hosp <dbl>
…
  # new columns
  mutate(
    # mean days to admission per hospital (rounded to 1 decimal)
    group_delay_admit = round(mean(days_onset_hosp, na.rm=T), 1),
    
    # difference between row's delay and mean delay at their hospital (rounded to 1 decimal)
    diff_to_group     = round(days_onset_hosp - group_delay_admit, 1)) %>%
  
  # select certain rows only - for demonstration/viewing purposes
  select(case_id, hospital, days_onset_hosp, group_delay_admit, diff_to_group)

## # A tibble: 5,888 x 5
## # Groups:   hospital [6]
##    case_id hospital                             days_onset_hosp group_delay_admit diff_to_group
##    <chr>   <chr>                                          <dbl>             <dbl>         <dbl>
##  1 5fe599  Other                                              2               2             0  
##  2 8689b7  Missing                                            1               2.1          -1.1
##  3 11f8ea  St. Mark's Maternity Hospital (SMMH)               2               2.1          -0.1
##  4 b8812a  Port Hospital                                      2               2.1          -0.1
##  5 893f25  Military Hospital                                  1               2.1          -1.1
##  6 be99c8  Port Hospital                                      1               2.1          -1.1
##  7 07e3e8  Missing                                            2               2.1          -0.1
##  8 369449  Missing                                            1               2.1          -1.1
##  9 f393b4  Missing                                            1               2.1          -1.1
## 10 1389ca  Missing                                            2               2.1          -0.1
## # ... with 5,878 more rows
…
