37 Transmission chains | The Epidemiologist R Handbook
…
## view epicontacts object
epic

## 
## /// Epidemiological Contacts //
## 
##   // class: epicontacts
##   // 5,888 cases in linelist; 3,800 contacts; directed 
## 
##   // linelist
## 
## # A tibble: 5,888 x 30
##    id    generation date_infection date_onset date_hospitalis~ date_outcome outcome gender   age age_unit age_years age_cat age_cat5 hospital   lon   lat
##    <chr>      <dbl> <date>         <date>     <date>           <date>       <chr>   <chr>  <dbl> <chr>        <dbl> <fct>   <fct>    <chr>    <dbl> <dbl>
##  1 5fe5~          4 2014-05-08     2014-05-13 2014-05-15       NA           <NA>    m          2 years            2 0-4     0-4      Other    -13.2  8.47
##  2 8689~          4 NA             2014-05-13 2014-05-14       2014-05-18   Recover f          3 years            3 0-4     0-4      Missing  -13.2  8.45
##  3 11f8~          2 NA             2014-05-16 2014-05-18       2014-05-30   Recover m         56 years           56 50-69   55-59    St. Mar~ -13.2  8.46
##  4 b881~          3 2014-05-04     2014-05-18 2014-05-20       NA           <NA>    f         18 years           18 15-19   15-19    Port Ho~ -13.2  8.48
##  5 893f~          3 2014-05-18     2014-05-21 2014-05-22       2014-05-29   Recover m          3 years            3 0-4     0-4      Militar~ -13.2  8.46
##  6 be99~          3 2014-05-03     2014-05-22 2014-05-23       2014-05-24   Recover f         16 years           16 15-19   15-19    Port Ho~ -13.2  8.46
##  7 07e3~          4 2014-05-22     2014-05-27 2014-05-29       2014-06-01   Recover f         16 years           16 15-19   15-19    Missing  -13.2  8.46
##  8 3694~          4 2014-05-28     2014-06-02 2014-06-03       2014-06-07   Death   f          0 years            0 0-4     0-4      Missing  -13.2  8.46
##  9 f393~          4 NA             2014-06-05 2014-06-06       2014-06-18   Recover m         61 years           61 50-69   60-64    Missing  -13.2  8.46
## 10 1389~          4 NA             2014-06-05 2014-06-07       2014-06-09   Death   f         27 years           27 20-29   25-29    Missing  -13.3  8.47
## # ... with 5,878 more rows, and 14 more variables: infector <chr>, source <chr>, wt_kg <dbl>, ht_cm <dbl>, ct_blood <dbl>, fever <chr>, chills <chr>,
## #   cough <chr>, aches <chr>, vomit <chr>, temp <dbl>, time_admission <chr>, bmi <dbl>, days_onset_hosp <dbl>
## 
##   // contacts
## 
## # A tibble: 3,800 x 4
##    from   to     location   duration
##    <chr>  <chr>  <chr>         <int>
##  1 f547d6 5fe599 Nosocomial       10
##  2 f90f5f b8812a Community         5
##  3 11f8ea 893f25 Nosocomial        5
##  4 aec8ec be99c8 Nosocomial       10
##  5 893f25 07e3e8 Community         8
##  6 133ee7 369449 Community         9
##  7 996f3a 2978ac Community         7
##  8 133ee7 57a565 Community         5
##  9 37a6f6 fc15ef Community         1
## 10 9f6884 2eaa9a Community         1
## # ... with 3,790 more rows
…
## 
## /// Epidemiological Contacts //
## 
##   // class: epicontacts
##   // 69 cases in linelist; 1,951 contacts; directed 
## 
##   // linelist
## 
## # A tibble: 69 x 30
##    id    generation date_infection date_onset date_hospitalis~ date_outcome outcome gender   age age_unit age_years age_cat age_cat5 hospital   lon   lat
##    <chr>      <dbl> <date>         <date>     <date>           <date>       <chr>   <chr>  <dbl> <chr>        <dbl> <fct>   <fct>    <chr>    <dbl> <dbl>
##  1 5fe5~          4 2014-05-08     2014-05-13 2014-05-15       NA           <NA>    m          2 years            2 0-4     0-4      Other    -13.2  8.47
##  2 893f~          3 2014-05-18     2014-05-21 2014-05-22       2014-05-29   Recover m          3 years            3 0-4     0-4      Militar~ -13.2  8.46
##  3 2978~          4 2014-05-30     2014-06-06 2014-06-08       2014-06-15   Death   m         12 years           12 10-14   10-14    Port Ho~ -13.2  8.48
##  4 57a5~          4 2014-05-28     2014-06-13 2014-06-15       NA           Death   m         42 years           42 30-49   40-44    Militar~ -13.3  8.46
##  5 fc15~          6 2014-06-14     2014-06-16 2014-06-17       2014-07-09   Recover m         19 years           19 15-19   15-19    Missing  -13.2  8.48
##  6 99e8~          7 2014-06-24     2014-06-28 2014-06-29       2014-07-09   Recover m         19 years           19 15-19   15-19    Port Ho~ -13.2  8.47
##  7 f327~          6 2014-06-14     2014-07-12 2014-07-13       2014-07-14   Death   m         31 years           31 30-49   30-34    St. Mar~ -13.2  8.46
##  8 90e5~          5 2014-06-18     2014-07-13 2014-07-14       2014-07-16   <NA>    m         67 years           67 50-69   65-69    Port Ho~ -13.3  8.46
##  9 a475~          5 2014-06-13     2014-07-17 2014-07-18       2014-07-26   Death   m         45 years           45 30-49   45-49    Militar~ -13.2  8.48
## 10 da8e~          5 2014-06-20     2014-07-18 2014-07-20       2014-08-01   <NA>    m         12 years           12 10-14   10-14    Missing  -13.2  8.48
## # ... with 59 more rows, and 14 more variables: infector <chr>, source <chr>, wt_kg <dbl>, ht_cm <dbl>, ct_blood <dbl>, fever <chr>, chills <chr>,
## #   cough <chr>, aches <chr>, vomit <chr>, temp <dbl>, time_admission <chr>, bmi <dbl>, days_onset_hosp <dbl>
## 
##   // contacts
## 
## # A tibble: 1,951 x 4
##    from   to     location   duration
##    <chr>  <chr>  <chr>         <int>
##  1 f547d6 5fe599 Nosocomial       10
##  2 11f8ea 893f25 Nosocomial        5
##  3 aec8ec be99c8 Nosocomial       10
##  4 a75c7f 7f5a01 Nosocomial        3
##  5 ab634e 99e8fa Nosocomial        5
##  6 b799eb bc2adf Nosocomial        5
##  7 a15e13 f327be Nosocomial        4
##  8 ea3740 90e5fe Nosocomial        5
##  9 894024 e56412 Nosocomial        3
## 10 36e2e7 6d788e Nosocomial       10
## # ... with 1,941 more rows
…
