Cẩm nang dịch tễ học với R - 25 Truy vết tiếp xúc
…
Với cấu trúc dữ liệu Go.Data, bộ dữ liệu relationships bao gồm độ tuổi của cả các ca mắc và những người tiếp xúc, vì vậy bạn có thể sử dụng bộ dữ liệu đó và tạo tháp tuổi cho thấy sự khác biệt giữa hai nhóm người này. Data frame relationships sẽ được biến đổi để chuyển các cột tuổi ở dạng số số thành các nhóm định danh (xem chương Làm sạch số liệu và các hàm quan trọng). Chúng ta cũng sẽ xoay trục dataframe sang định dạng dọc nhằm vẽ biểu đồ dễ dàng hơn với ggplot2 (xem chương Xoay trục dữ liệu).

relation_age <- relationships %>% 
  select(source_age, target_age) %>% 
  transmute(                              # transmute is like mutate() but removes all other columns not mentioned
    source_age_class = epikit::age_categories(source_age, breakers = seq(0, 80, 5)),
    target_age_class = epikit::age_categories(target_age, breakers = seq(0, 80, 5)),
    ) %>% 
  pivot_longer(cols = contains("class"), names_to = "category", values_to = "age_class")  # pivot longer

relation_age

# A tibble: 200 × 2
   category         age_class
   <chr>            <fct>    
 1 source_age_class 80+      
 2 target_age_class 15-19    
 3 source_age_class <NA>     
 4 target_age_class 50-54    
 5 source_age_class <NA>     
 6 target_age_class 20-24    
 7 source_age_class 30-34    
 8 target_age_class 45-49    
 9 source_age_class 40-44    
10 target_age_class 30-34    
# ℹ 190 more rows
…
