Epidemiyologun R Rehberi - 8 Veri temizliği ve temel fonksiyonlar
…
          # ayrıca yalnızca ikinci salgını tutmak için filtreleyin
          date_onset > as.Date("2013-06-01") | (is.na(date_onset) & !hospital %in% c("Hospital A", "Hospital B")))

8.12 Satır tabanlı hesaplamalar

Bir satır içinde bir hesaplama yapmak istiyorsanız, dplyr’den rowwise() fonksiyonuni kullanabilirsiniz. Satır bazında hesaplamalar için bu çevrimiçi gösterime bakabilirsiniz. Örneğin, bu kod rowwise() komutunu uygular ve ardından satır listesindeki her satır için “evet” değerine sahip belirtilen semptom sütunlarının sayısını toplayan yeni bir sütun oluşturur. Sütunlar, bir c() vektörü içinde adlarıyla sum() içinde belirtilir. rowwise() aslında özel bir group_by() türüdür, bu nedenle işiniz bittiğinde ungroup() komutunu kullanmak en iyisidir verileri gruplandırma sayfasınd.

linelist %>%
  rowwise() %>%
  mutate(num_symptoms = sum(c(fever, chills, cough, aches, vomit) == "yes")) %>% 
  ungroup() %>% 
  select(fever, chills, cough, aches, vomit, num_symptoms) # gösterim için

# A tibble: 5,888 × 6
   fever chills cough aches vomit num_symptoms
   <chr> <chr>  <chr> <chr> <chr>        <int>
 1 no    no     yes   no    yes              2
 2 <NA>  <NA>   <NA>  <NA>  <NA>            NA
 3 <NA>  <NA>   <NA>  <NA>  <NA>            NA
 4 no    no     no    no    no               0
 5 no    no     yes   no    yes              2
 6 no    no     yes   no    yes              2
 7 <NA>  <NA>   <NA>  <NA>  <NA>            NA
 8 no    no     yes   no    yes              2
 9 no    no     yes   no    yes              2
10 no    no     yes   no    no               1
# ℹ 5,878 more rows

Değerlendirilecek sütunu belirlerken, bu sayfanın select() bölümünde açıklanan “tidyselect” yardımcı fonksiyonlarını kullanmak isteyebilirsiniz. Sadece bir ayarlama yapmanız gerekir (çünkü bunları select() veya summarise() gibi bir dplyr fonksiyonunda kullanmıyorsunuz).

Sütun belirtim ölçütlerini dplyr fonksiyonu c_across() içine koyun. Bunun nedeni, c_across’un (belgeler) özellikle rowwise() ile çalışmak üzere tasarlanmış olmasıdır. Örneğin, aşağıdaki kod:

• rowwise() uygular, böylece her satırda aşağıdaki işlem (sum()) uygulanır (tüm sütunları toplamaz) • Yeni sütun num_NA_dates oluşturur, her satır için is.na() öğesinin DOĞRU olarak değerlendirildiği sütun sayısı tanımlanır. • sonraki adımlar için rowwise()’ın etkilerini kaldırmak için grubu çözmek gerekir ungroup()

linelist %>%
  rowwise() %>%
  mutate(num_NA_dates = sum(is.na(c_across(contains("date"))))) %>% 
  ungroup() %>% 
  select(num_NA_dates, contains("date")) # gösterim için

# A tibble: 5,888 × 5
   num_NA_dates date_infection date_onset date_hospitalisation date_outcome
          <int> <date>         <date>     <date>               <date>      
 1            1 2014-05-08     2014-05-13 2014-05-15           NA          
 2            1 NA             2014-05-13 2014-05-14           2014-05-18  
 3            1 NA             2014-05-16 2014-05-18           2014-05-30  
 4            1 2014-05-04     2014-05-18 2014-05-20           NA          
 5            0 2014-05-18     2014-05-21 2014-05-22           2014-05-29  
 6            0 2014-05-03     2014-05-22 2014-05-23           2014-05-24  
 7            0 2014-05-22     2014-05-27 2014-05-29           2014-06-01  
 8            0 2014-05-28     2014-06-02 2014-06-03           2014-06-07  
 9            1 NA             2014-06-05 2014-06-06           2014-06-18  
10            1 NA             2014-06-05 2014-06-07           2014-06-09  
# ℹ 5,878 more rows

Her satır için en son veya en son tarihi almak için max() gibi başka fonksiyonlar da uygulayabilirsiniz:

linelist %>%
  rowwise() %>%
  mutate(latest_date = max(c_across(contains("date")), na.rm=T)) %>% 
  ungroup() %>% 
  select(latest_date, contains("date"))  # gösterim için

# A tibble: 5,888 × 5
   latest_date date_infection date_onset date_hospitalisation date_outcome
   <date>      <date>         <date>     <date>               <date>      
 1 2014-05-15  2014-05-08     2014-05-13 2014-05-15           NA          
 2 2014-05-18  NA             2014-05-13 2014-05-14           2014-05-18  
 3 2014-05-30  NA             2014-05-16 2014-05-18           2014-05-30  
 4 2014-05-20  2014-05-04     2014-05-18 2014-05-20           NA          
 5 2014-05-29  2014-05-18     2014-05-21 2014-05-22           2014-05-29  
 6 2014-05-24  2014-05-03     2014-05-22 2014-05-23           2014-05-24  
 7 2014-06-01  2014-05-22     2014-05-27 2014-05-29           2014-06-01  
 8 2014-06-07  2014-05-28     2014-06-02 2014-06-03           2014-06-07  
 9 2014-06-18  NA             2014-06-05 2014-06-06           2014-06-18  
10 2014-06-09  NA             2014-06-05 2014-06-07           2014-06-09  
# ℹ 5,878 more rows
…
