Epidemiyologun R Rehberi - 25 Temaslı izlemi
…
Go.Data veri yapısıyla, ‘ilişkiler’ veri kümesi hem vakaların hem de ilgili kişilerin yaşlarını içerir, böylece bu veri kümesini kullanabilir ve bu iki insan grubu arasındaki farkları gösteren bir yaş piramidi oluşturabilirsiniz. “İlişkiler” veri çerçevesi, sayısal yaş sütunlarını kategorilere dönüştürmek için değiştirilecektir (bkz. [Temizleme verileri ve temel işlevler] sayfası). Ayrıca, ggplot2 ile çizimi kolaylaştırmak için veri çerçevesini daha uzun süre döndürürüz (bkz. [Özetleme verileri]).

relation_age <- relationships %>% 
  select(source_age, target_age) %>% 
  transmute(                              # transmute, mutate() gibidir ancak bahsedilmeyen tüm diğer sütunları kaldırır
    source_age_class = epikit::age_categories(source_age, breakers = seq(0, 80, 5)),
    target_age_class = epikit::age_categories(target_age, breakers = seq(0, 80, 5)),
    ) %>% 
  pivot_longer(cols = contains("class"), names_to = "category", values_to = "age_class")  

relation_age

# A tibble: 200 × 2
   category         age_class
   <chr>            <fct>    
 1 source_age_class 80+      
 2 target_age_class 15-19    
 3 source_age_class <NA>     
 4 target_age_class 50-54    
 5 source_age_class <NA>     
 6 target_age_class 20-24    
 7 source_age_class 30-34    
 8 target_age_class 45-49    
 9 source_age_class 40-44    
10 target_age_class 30-34    
# ℹ 190 more rows
…
