13 Verileri Gruplama – Epidemiyologun R Rehberi
…
dplyr’den group_by() fonsiyonu, satırları kendisine belirtilen sütundaki benzersiz değerlere göre gruplandırır. Birden çok sütun belirtilirse, satırlar sütunlar boyunca benzersiz değer kombinasyonlarına göre gruplanır. Her benzersiz değer (veya değer kombinasyonu) bir grup oluşturur. Veri kümesinde veya hesaplamalarda sonraki değişiklikler daha sonra her grup bağlamında gerçekleştirilebilir.

Örneğin, aşağıdaki komut “linelist”i alır ve satırları “outcome” sütunundaki benzersiz değerlere göre gruplayarak çıktıyı yeni bir “ll_by_outcome” veri çerçevesi olarak kaydeder. Gruplandırma sütunu/sütunları, ‘group_by()’ fonksiyonunun parantezlerin içine yerleştirilir.

ll_by_outcome <- linelist %>% 
  group_by(outcome)

Veri kümesinde algılanabilir bir değişiklik olmadığını unutmayın group_by() çalıştırıldıktan sonra, mutate(), summarise() veya arrange() gibi başka bir dplyr fiili “gruplandırılmış” veri çerçevesine kadar uygulanır.

Bununla birlikte, veri çerçevesini yazdırarak gruplamaları “görebilirsiniz”. Gruplandırılmış bir veri çerçevesi yazdırdığınızda, bunun yazdırıldığında hangi gruplamaların uygulandığını ve kaç tane olduğunu gösteren bir tibble sınıf nesnesine dönüştürüldüğünü göreceksiniz - başlık satırının hemen üstüne yazılır.

# hangi grupların aktif olduğunu görmek için yazdır
ll_by_outcome

# A tibble: 5,888 × 30
# Groups:   outcome [3]
   case_id generation date_infection date_onset date_hospitalisation
   <chr>        <dbl> <date>         <date>     <date>              
 1 5fe599           4 2014-05-08     2014-05-13 2014-05-15          
 2 8689b7           4 NA             2014-05-13 2014-05-14          
 3 11f8ea           2 NA             2014-05-16 2014-05-18          
 4 b8812a           3 2014-05-04     2014-05-18 2014-05-20          
 5 893f25           3 2014-05-18     2014-05-21 2014-05-22          
 6 be99c8           3 2014-05-03     2014-05-22 2014-05-23          
 7 07e3e8           4 2014-05-22     2014-05-27 2014-05-29          
 8 369449           4 2014-05-28     2014-06-02 2014-06-03          
 9 f393b4           4 NA             2014-06-05 2014-06-06          
10 1389ca           4 NA             2014-06-05 2014-06-07          
# ℹ 5,878 more rows
# ℹ 25 more variables: date_outcome <date>, outcome <chr>, gender <chr>,
#   age <dbl>, age_unit <chr>, age_years <dbl>, age_cat <fct>, age_cat5 <fct>,
#   hospital <chr>, lon <dbl>, lat <dbl>, infector <chr>, source <chr>,
#   wt_kg <dbl>, ht_cm <dbl>, ct_blood <dbl>, fever <chr>, chills <chr>,
#   cough <chr>, aches <chr>, vomit <chr>, temp <dbl>, time_admission <chr>,
#   bmi <dbl>, days_onset_hosp <dbl>
…
Sayıları ekle

‘count()’ ve ‘summarise()’in aksine, diğer tüm veri çerçevesi sütunlarını korurken grup başına satır sayısıyla yeni bir ’n’ sütunu eklemek için ‘add_count()’ kullanabilirsiniz.

Bu, yeni n sütunundaki bir grubun sayım numarasının grubun her satırına yazdırılacağı anlamına gelir. Gösteri amacıyla, bu sütunu ekliyoruz ve daha sonra daha kolay görüntüleme için sütunları yeniden düzenliyoruz. Başka bir örnek için aşağıdaki grup boyutuna göre filtrele bölümüne bakabilirsiniz.

linelist %>% 
  as_tibble() %>%                   # daha güzel baskı için tibble'a dönüştürün
  add_count(hospital) %>%           # hastaneye göre sayılarla n sütunu ekle
  select(hospital, n, everything()) # demo amaçlı yeniden düzenlemek

# A tibble: 5,888 × 31
   hospital                       n case_id generation date_infection date_onset
   <chr>                      <int> <chr>        <dbl> <date>         <date>    
 1 Other                        885 5fe599           4 2014-05-08     2014-05-13
 2 Missing                     1469 8689b7           4 NA             2014-05-13
 3 St. Mark's Maternity Hosp…   422 11f8ea           2 NA             2014-05-16
 4 Port Hospital               1762 b8812a           3 2014-05-04     2014-05-18
 5 Military Hospital            896 893f25           3 2014-05-18     2014-05-21
 6 Port Hospital               1762 be99c8           3 2014-05-03     2014-05-22
 7 Missing                     1469 07e3e8           4 2014-05-22     2014-05-27
 8 Missing                     1469 369449           4 2014-05-28     2014-06-02
 9 Missing                     1469 f393b4           4 NA             2014-06-05
10 Missing                     1469 1389ca           4 NA             2014-06-05
# ℹ 5,878 more rows
# ℹ 25 more variables: date_hospitalisation <date>, date_outcome <date>,
#   outcome <chr>, gender <chr>, age <dbl>, age_unit <chr>, age_years <dbl>,
#   age_cat <fct>, age_cat5 <fct>, lon <dbl>, lat <dbl>, infector <chr>,
#   source <chr>, wt_kg <dbl>, ht_cm <dbl>, ct_blood <dbl>, fever <chr>,
#   chills <chr>, cough <chr>, aches <chr>, vomit <chr>, temp <dbl>,
#   time_admission <chr>, bmi <dbl>, days_onset_hosp <dbl>
…
Satır listesini “hastane” sütununa göre gruplandırın

Kayıtları en geçten en erken ’hastaneye yatış tarihi’ne her hastane grubu içinde düzenleyin

Her hastaneden ilk 5 sırayı almak için dilimleyin

linelist %>%
  group_by(hospital) %>%
  arrange(hospital, date_hospitalisation) %>%
  slice_head(n = 5) %>% 
  arrange(hospital) %>%                            
  select(case_id, hospital, date_hospitalisation)  # görüntülemek için

# A tibble: 30 × 3
# Groups:   hospital [6]
   case_id hospital          date_hospitalisation
   <chr>   <chr>             <date>              
 1 20b688  Central Hospital  2014-05-06          
 2 d58402  Central Hospital  2014-05-10          
 3 b8f2fd  Central Hospital  2014-05-13          
 4 acf422  Central Hospital  2014-05-28          
 5 275cc7  Central Hospital  2014-05-28          
 6 d1fafd  Military Hospital 2014-04-17          
 7 974bc1  Military Hospital 2014-05-13          
 8 6a9004  Military Hospital 2014-05-13          
 9 09e386  Military Hospital 2014-05-14          
10 865581  Military Hospital 2014-05-15          
# ℹ 20 more rows
…
slice() hakkında daha fazla örnek ve ayrıntı için [Tekilleştirme] sayfasına bakabilirsiniz.

Grup boyutuna göre filtreleyin

‘add_count()’ fonksiyonu, o satırın grubundaki satır sayısını veren orijinal verilere bir ‘n’ sütunu ekler.

Aşağıda gösterildiği gibi, “hastane” sütununa “add_count()” uygulanır, bu nedenle yeni “n” sütunundaki değerler, o satırın hastane grubundaki satır sayısını yansıtır. ‘n’ sütunundaki değerlerin nasıl tekrarlandığına dikkat edin. Aşağıdaki örnekte, ‘n’ sütun adı ‘add_count()’ içindeki ‘name =’ kullanılarak değiştirilebilir. Gösteri amacıyla sütunları select() ile yeniden düzenliyoruz.

linelist %>% 
  as_tibble() %>% 
  add_count(hospital) %>%          # "bu sıra ile aynı hastaneye kabul edilen sıra sayısı" ekle
  select(hospital, n, everything())

# A tibble: 5,888 × 31
   hospital                       n case_id generation date_infection date_onset
   <chr>                      <int> <chr>        <dbl> <date>         <date>    
 1 Other                        885 5fe599           4 2014-05-08     2014-05-13
 2 Missing                     1469 8689b7           4 NA             2014-05-13
 3 St. Mark's Maternity Hosp…   422 11f8ea           2 NA             2014-05-16
 4 Port Hospital               1762 b8812a           3 2014-05-04     2014-05-18
 5 Military Hospital            896 893f25           3 2014-05-18     2014-05-21
 6 Port Hospital               1762 be99c8           3 2014-05-03     2014-05-22
 7 Missing                     1469 07e3e8           4 2014-05-22     2014-05-27
 8 Missing                     1469 369449           4 2014-05-28     2014-06-02
 9 Missing                     1469 f393b4           4 NA             2014-06-05
10 Missing                     1469 1389ca           4 NA             2014-06-05
# ℹ 5,878 more rows
# ℹ 25 more variables: date_hospitalisation <date>, date_outcome <date>,
#   outcome <chr>, gender <chr>, age <dbl>, age_unit <chr>, age_years <dbl>,
#   age_cat <fct>, age_cat5 <fct>, lon <dbl>, lat <dbl>, infector <chr>,
#   source <chr>, wt_kg <dbl>, ht_cm <dbl>, ct_blood <dbl>, fever <chr>,
#   chills <chr>, cough <chr>, aches <chr>, vomit <chr>, temp <dbl>,
#   time_admission <chr>, bmi <dbl>, days_onset_hosp <dbl>
…
  # Yeni sütunlar
  mutate(
    # hastaneye kabule kadar geçen ortalama gün sayısı (1 ondalık sayıya yuvarlanır)
    group_delay_admit = round(mean(days_onset_hosp, na.rm=T), 1),
    
    # sıra gecikmesi ile hastanelerindeki ortalama gecikme arasındaki fark (1 ondalık basamağa yuvarlanır)
    diff_to_group     = round(days_onset_hosp - group_delay_admit, 1)) %>%
  
  # yalnızca belirli satırları seçin - gösterim/görüntüleme amaçlı
  select(case_id, hospital, days_onset_hosp, group_delay_admit, diff_to_group)

# A tibble: 5,888 × 5
# Groups:   hospital [6]
   case_id hospital              days_onset_hosp group_delay_admit diff_to_group
   <chr>   <chr>                           <dbl>             <dbl>         <dbl>
 1 5fe599  Other                               2               2             0  
 2 8689b7  Missing                             1               2.1          -1.1
 3 11f8ea  St. Mark's Maternity…               2               2.1          -0.1
 4 b8812a  Port Hospital                       2               2.1          -0.1
 5 893f25  Military Hospital                   1               2.1          -1.1
 6 be99c8  Port Hospital                       1               2.1          -1.1
 7 07e3e8  Missing                             2               2.1          -0.1
 8 369449  Missing                             1               2.1          -1.1
 9 f393b4  Missing                             1               2.1          -1.1
10 1389ca  Missing                             2               2.1          -0.1
# ℹ 5,878 more rows
…
